[
  [
    {
      "r": 10,
      "rx": 5.75,
      "y": 0.25,
      "x": -1.5,
      "a": 7
    },
    "K14"
  ],
  [
    {
      "y": -0.75,
      "x": -2.5
    },
    "K13",
    {
      "x": 1
    },
    "K15"
  ],
  [
    {
      "y": -0.75,
      "x": -4.5
    },
    "K15",
    "K12",
    {
      "x": 3
    },
    "K16"
  ],
  [
    {
      "y": -0.5,
      "x": -1.5
    },
    "K24"
  ],
  [
    {
      "y": -0.75,
      "x": -2.5
    },
    "K23",
    {
      "x": 1
    },
    "K25"
  ],
  [
    {
      "y": -0.75,
      "x": -4.5
    },
    "K21",
    "K22",
    {
      "x": 3
    },
    "K26"
  ],
  [
    {
      "y": -0.5,
      "x": -1.5
    },
    "K34"
  ],
  [
    {
      "y": -0.75,
      "x": -2.5
    },
    "K33",
    {
      "x": 1
    },
    "K35"
  ],
  [
    {
      "y": -0.75,
      "x": -4.5
    },
    "K31",
    "K32",
    {
      "x": 3
    },
    "K36"
  ],
  [
    {
      "y": -0.25,
      "x": -0.5
    },
    "K44"
  ],
  [
    {
      "y": -0.75,
      "x": -4.5
    },
    "K41",
    "K42",
    {
      "x": 1
    },
    "K43",
    {
      "x": 1
    },
    "K45"
  ],
  [
    {
      "y": -0.75,
      "x": 1.5
    },
    "K46"
  ],
  [
    {
      "r": -10,
      "rx": 1,
      "ry": 0.75,
      "y": 1,
      "x": 9
    },
    "K53"
  ],
  [
    {
      "y": -0.75,
      "x": 8
    },
    "K52",
    {
      "x": 1
    },
    "K54"
  ],
  [
    {
      "y": -0.75,
      "x": 7
    },
    "K51",
    {
      "x": 3
    },
    "K55",
    "K56"
  ],
  [
    {
      "y": -0.5,
      "x": 9
    },
    "K63"
  ],
  [
    {
      "y": -0.75,
      "x": 8
    },
    "K62",
    {
      "x": 1
    },
    "K64"
  ],
  [
    {
      "y": -0.75,
      "x": 7
    },
    "K61",
    {
      "x": 3
    },
    "K65",
    "K66"
  ],
  [
    {
      "y": -0.5,
      "x": 9
    },
    "K73"
  ],
  [
    {
      "y": -0.75,
      "x": 8
    },
    "K72",
    {
      "x": 1
    },
    "K74"
  ],
  [
    {
      "y": -0.75,
      "x": 7
    },
    "K71",
    {
      "x": 3
    },
    "K75",
    "K76"
  ],
  [
    {
      "y": -0.25,
      "x": 8
    },
    "K83"
  ],
  [
    {
      "y": -0.75,
      "x": 7
    },
    "K82",
    {
      "x": 1
    },
    "K84",
    {
      "x": 1
    },
    "K85",
    "K86"
  ],
  [
    {
      "y": -0.75,
      "x": 6
    },
    "K81"
  ]
]