[
  [
    {
      "rx": 5.75,
      "y": 4,
      "x": 1.25,
      "a": 7,
      "w": 1.25
    },
    "Gay"
  ],
  [
    {
      "r": 10,
      "y": -4.75,
      "x": -1.5,
      "a": 4
    },
    "\n\n#\n3\n\n\n\n\n\nE"
  ],
  [
    {
      "y": -0.75,
      "x": -2.5
    },
    "\n\n@\n2\n\n\n\n\n\nW",
    {
      "x": 1
    },
    "\n\n$\n4\n\n\n\n\n\nR"
  ],
  [
    {
      "y": -0.75,
      "x": -4.5,
      "a": 7
    },
    "Esc",
    {
      "a": 4
    },
    "\n\n!\n1\n\n\n\n\n\nQ",
    {
      "x": 3
    },
    "\n\n%\n5\n\n\n\n\n\nT"
  ],
  [
    {
      "y": -0.5,
      "x": -1.5
    },
    "\n\n\n=\n\n\n\n\n\nD"
  ],
  [
    {
      "y": -0.75,
      "x": -2.5
    },
    "\n\n_\n-\n\n\n\n\n\nS",
    {
      "x": 1
    },
    "\n\n{\n[\n\n\n\n\n\nF"
  ],
  [
    {
      "y": -0.75,
      "x": -4.5,
      "a": 7
    },
    "Tab",
    {
      "a": 4
    },
    "\n\n\n+\n\n\n\n\n\nA",
    {
      "x": 3
    },
    "\n\n}\n]\n\n\n\n\n\nG"
  ],
  [
    {
      "y": -0.5,
      "x": -1.5,
      "a": 7
    },
    "C"
  ],
  [
    {
      "y": -0.75,
      "x": -2.5
    },
    "X",
    {
      "x": 1
    },
    "V"
  ],
  [
    {
      "y": -0.75,
      "x": -4.5
    },
    "Shift",
    "Z",
    {
      "x": 3
    },
    "B"
  ],
  [
    {
      "x": -4.5
    },
    "Ctrl",
    "Win",
    {
      "x": 1
    },
    "lower",
    {
      "w": 2
    },
    "Bcksp"
  ],
  [
    {
      "r": -10,
      "rx": 1,
      "ry": 0.75,
      "y": 1,
      "x": 9,
      "a": 4
    },
    "\n\n*\n8\n\n\n\n\n\nI"
  ],
  [
    {
      "y": -0.75,
      "x": 8
    },
    "\n\n&\n7\n\n\n\n\n\nU",
    {
      "x": 1
    },
    "\n\n)\n9\n\n\n\n\n\nO"
  ],
  [
    {
      "y": -0.75,
      "x": 7
    },
    "\n\n^\n6\n\n\n\n\n\nY",
    {
      "x": 3
    },
    "\n\n)\n0\n\n\n\n\n\nP",
    {
      "a": 7
    },
    "Bcksp"
  ],
  [
    {
      "y": -0.5,
      "x": 9,
      "a": 4
    },
    "\n\n\n↑\n\n\n\n\n\nK"
  ],
  [
    {
      "y": -0.75,
      "x": 8,
      "a": 7
    },
    "J",
    {
      "x": 1,
      "a": 4,
      "fa": [
        0,
        0,
        1
      ]
    },
    "\n\n|\n\\\n\n\n\n\n\nL"
  ],
  [
    {
      "y": -0.75,
      "x": 7,
      "a": 7
    },
    "H",
    {
      "x": 3,
      "a": 4,
      "f": 3
    },
    "\n\n\"\n'\n\n\n\n\n\n:\n;",
    {
      "a": 7
    },
    "Enter"
  ],
  [
    {
      "y": -0.5,
      "x": 9,
      "a": 4
    },
    "\n\n\n↓\n\n\n\n\n\n<\n,"
  ],
  [
    {
      "y": -0.75,
      "x": 8,
      "fa": [
        0,
        0,
        1,
        1
      ]
    },
    "\n\n\n←\n\n\n\n\n\nM",
    {
      "x": 1,
      "f": 3
    },
    "\n\n\n→\n\n\n\n\n\n>\n."
  ],
  [
    {
      "y": -0.75,
      "x": 7,
      "a": 7
    },
    "N",
    {
      "x": 3,
      "a": 4,
      "f": 3
    },
    "\n\nÉ\né\n\n\n\n\n\n?\n/",
    {
      "a": 7
    },
    "Shift"
  ],
  [
    {
      "x": 7,
      "w": 2
    },
    "Space",
    "raise",
    {
      "x": 1
    },
    "Alt",
    "Ctrl"
  ]
]