(footprint "Encoder-PEC11R" (version 20211014) (generator pcbnew)
  (layer "F.Cu")
  (tedit 629F7E5A)
  (property "MANUFACTURER" "J.W.Miller/Bourns")
  (property "MAXIMUM_PACKAGE_HEIGHT" "21.5 mm")
  (property "PARTREV" "Rev. 09/19")
  (property "STANDARD" "Manufacturer Recommendations")
  (property "Sheetfile" "doxie.kicad_sch")
  (property "Sheetname" "")
  (attr through_hole)
  (fp_text reference "RE1" (at -6 -8.835) (layer "F.SilkS")
    (effects (font (size 1 1) (thickness 0.15)))
    (tstamp 56f5f975-d776-4bbf-b724-28763f288551)
  )
  (fp_text value "PEC11R" (at 7.255 9.315) (layer "F.Fab")
    (effects (font (size 1 1) (thickness 0.15)))
    (tstamp 8c1ae448-4caa-4b86-b2e1-aa5c5a611440)
  )
  (fp_line (start -6.25 -6.7) (end -3.7 -6.7) (layer "F.SilkS") (width 0.127) (tstamp 154fa228-39a4-45ac-a265-744539ebeeb5))
  (fp_line (start 1.5 -8) (end 1.5 -11.5) (layer "F.SilkS") (width 0.12) (tstamp 2220f724-1ea9-4e29-a0a2-b109e89338f3))
  (fp_line (start 6.25 6.7) (end 6.25 3.4) (layer "F.SilkS") (width 0.127) (tstamp 4b7b709e-714c-4b68-bc19-46b6feced62c))
  (fp_line (start -1.5 -8) (end -1.5 -11.5) (layer "F.SilkS") (width 0.12) (tstamp 4e589828-7f96-436c-8642-8a8f2e0afba6))
  (fp_line (start 3.7 -6.7) (end 6.25 -6.7) (layer "F.SilkS") (width 0.127) (tstamp 6c5d7933-57c7-4b7d-b0ea-fc211f4987e1))
  (fp_line (start -6.25 3.4) (end -6.25 6.7) (layer "F.SilkS") (width 0.127) (tstamp 8ee42c4e-3ea3-4eab-b512-6d57ad7273a1))
  (fp_line (start 6.25 -6.7) (end 6.25 -3.4) (layer "F.SilkS") (width 0.127) (tstamp 90dab20f-89d9-47ff-8cc2-384ea6a7d041))
  (fp_line (start -3.5 -8) (end -3.5 -11.5) (layer "F.SilkS") (width 0.12) (tstamp a1750e93-85d2-446f-96b6-a8b8718190ff))
  (fp_line (start -6.25 -3.4) (end -6.25 -6.7) (layer "F.SilkS") (width 0.127) (tstamp ad1c65e3-58b8-470d-a2bb-f86277c817c5))
  (fp_line (start 3.5 -8) (end 3.5 -11.5) (layer "F.SilkS") (width 0.12) (tstamp ae5f3e09-9a55-497d-867d-c350f2e981d1))
  (fp_line (start 3.7 6.7) (end 6.25 6.7) (layer "F.SilkS") (width 0.127) (tstamp c461594c-bdde-412f-8e98-9bd7d8a32a6c))
  (fp_line (start -6.25 6.7) (end -3.7 6.7) (layer "F.SilkS") (width 0.127) (tstamp faeeabd4-0ce1-4e69-959a-3ef2603053a9))
  (fp_circle (center -4.2 -7.6) (end -4.1 -7.6) (layer "F.SilkS") (width 0.2) (fill none) (tstamp 8653d1aa-63ba-4db2-9930-cf7833cc54a2))
  (fp_rect (start -6.6 -7) (end 6.6 7) (layer "Eco1.User") (width 0.12) (fill none) (tstamp 4ba27a32-4c83-4550-bea7-6a60c633a2c3))
  (fp_line (start -7.45 -8.1) (end -7.45 8.6) (layer "F.CrtYd") (width 0.05) (tstamp 05644290-09f6-4d56-bf39-51543af2cb34))
  (fp_line (start 7.45 -8.1) (end -7.45 -8.1) (layer "F.CrtYd") (width 0.05) (tstamp 8f40a291-5435-43bb-a9b3-581a31fdc3e7))
  (fp_line (start 7.45 8.6) (end 7.45 -8.1) (layer "F.CrtYd") (width 0.05) (tstamp a3d417d2-755e-4e86-944c-fd8446c1aeba))
  (fp_line (start -7.45 8.6) (end 7.45 8.6) (layer "F.CrtYd") (width 0.05) (tstamp c6adf6bc-0aa9-4916-a57c-c4f21e457df5))
  (fp_line (start 6.25 6.7) (end -6.25 6.7) (layer "F.Fab") (width 0.127) (tstamp 1e458798-98d5-4707-ae4a-0dc44f476126))
  (fp_line (start 6.25 -6.7) (end 6.25 6.7) (layer "F.Fab") (width 0.127) (tstamp 32edde43-f5d4-461d-bfab-d43c0bb7fd51))
  (fp_line (start -6.25 -6.7) (end 6.25 -6.7) (layer "F.Fab") (width 0.127) (tstamp 3639b7e6-c6ba-4760-b0db-514c4216428e))
  (fp_line (start -6.25 6.7) (end -6.25 -6.7) (layer "F.Fab") (width 0.127) (tstamp 5a40cfd6-90c7-4584-bbd4-7184984ad5d8))
  (fp_circle (center 0 0) (end 3 0) (layer "F.Fab") (width 0.127) (fill none) (tstamp 303940b0-7a08-4cf5-95f9-ab5c0578d4e3))
  (fp_circle (center -4.2 -7.6) (end -4.1 -7.6) (layer "F.Fab") (width 0.2) (fill none) (tstamp 8e4bdedd-d187-4310-a0e5-dfb3885c2fa8))
  (pad "" np_thru_hole circle (at -2.5 -13 180) (size 2.8 2.8) (drill 2.8) (layers *.Cu *.Mask) (tstamp 1eb7a634-e118-4174-8581-9937394ad576))
  (pad "" np_thru_hole circle (at 2.5 -13 180) (size 2.8 2.8) (drill 2.8) (layers *.Cu *.Mask) (tstamp 84f85cd0-698d-4b6f-ae4d-c19c9eff03d6))
  (pad "1" thru_hole rect (at -2.5 -7) (size 1.65 1.65) (drill 1.1) (layers *.Cu *.Mask) (tstamp b0b189a0-df92-4e14-bb08-342d4a30db80))
  (pad "2" thru_hole circle (at 2.5 -7) (size 1.65 1.65) (drill 1.1) (layers *.Cu *.Mask) (tstamp e7776c57-cca6-4111-b667-e30fa5e9ec5f))
  (pad "A" thru_hole circle (at -2.5 7.5) (size 1.65 1.65) (drill 1.1) (layers *.Cu *.Mask) (tstamp 74f06e50-2610-4e6a-8553-c2715f59471e))
  (pad "B" thru_hole circle (at 2.5 7.5) (size 1.65 1.65) (drill 1.1) (layers *.Cu *.Mask) (tstamp 789bc2b2-bd97-4b62-9854-119264843ccc))
  (pad "COM" thru_hole circle (at 0 7.5) (size 1.65 1.65) (drill 1.1) (layers *.Cu *.Mask) (tstamp 2b7e2136-b27f-4ed7-acc5-11b43fb2bf06))
  (pad "S1" thru_hole oval (at -5.7 0) (size 3 6) (drill oval 2 2.8) (layers *.Cu *.Mask) (tstamp 634ef3f4-48b0-4196-ba8a-713640835768))
  (pad "S2" thru_hole oval (at 5.7 0) (size 3 6) (drill oval 2 2.8) (layers *.Cu *.Mask) (tstamp fe428f8a-0988-4834-8f51-0d85a959b96c))
)
