(footprint "MX-2U" (version 20211014) (generator pcbnew)
  (layer "F.Cu")
  (tedit 5BD3C72F)
  (property "Sheetfile" "doxie.kicad_sch")
  (property "Sheetname" "")
  (attr through_hole)
  (fp_text reference "SW80" (at 0 3.175) (layer "Dwgs.User")
    (effects (font (size 1 1) (thickness 0.15)))
    (tstamp 6bde345f-02d9-4aa0-ae3f-ba614f9b9fce)
  )
  (fp_text value "~" (at 0 -7.9375) (layer "Dwgs.User")
    (effects (font (size 1 1) (thickness 0.15)))
    (tstamp a3db1ba8-55d7-485b-b486-46bdfee50dd5)
  )
  (fp_line (start -5 -7) (end -7 -7) (layer "Dwgs.User") (width 0.15) (tstamp 019c297c-e3bd-420f-9d16-c22641b2d8cc))
  (fp_line (start -7 5) (end -7 7) (layer "Dwgs.User") (width 0.15) (tstamp 18f9d650-2cfb-406d-ba0f-e50f2b369dc6))
  (fp_line (start 5 -7) (end 7 -7) (layer "Dwgs.User") (width 0.15) (tstamp 2e0aebc3-bcfa-49f6-86a7-fe34c429b74e))
  (fp_line (start -7 -7) (end -7 -5) (layer "Dwgs.User") (width 0.15) (tstamp 32acb251-76ed-4a7b-8a87-00979009d035))
  (fp_line (start 5 7) (end 7 7) (layer "Dwgs.User") (width 0.15) (tstamp 40346ce0-6f5e-41fe-a2b7-c64452ca1fb7))
  (fp_line (start 7 -7) (end 7 -5) (layer "Dwgs.User") (width 0.15) (tstamp cb4ac898-5990-4a65-9bac-55e2a57052d9))
  (fp_line (start -7 7) (end -5 7) (layer "Dwgs.User") (width 0.15) (tstamp e26d4cb4-0e09-4e80-997c-fe37da8cc050))
  (fp_line (start 7 7) (end 7 5) (layer "Dwgs.User") (width 0.15) (tstamp f8ac0895-bdde-4b73-b02e-abe79cb2e5bb))
  (fp_line (start -19.05 -9.525) (end 19.05 -9.525) (layer "Eco2.User") (width 0.15) (tstamp 855672f5-1696-47d3-a65c-594d10fda059))
  (fp_line (start -19.05 9.525) (end -19.05 -9.525) (layer "Eco2.User") (width 0.15) (tstamp a585135b-0982-44e8-a145-8b759fd7ef50))
  (fp_line (start -19.05 9.525) (end 19.05 9.525) (layer "Eco2.User") (width 0.15) (tstamp a85d0ea0-f15a-4416-9e5d-65ae763547bf))
  (fp_line (start 19.05 -9.525) (end 19.05 9.525) (layer "Eco2.User") (width 0.15) (tstamp aaf03b2c-6716-4faf-8e79-665fe15ddc31))
  (fp_line (start 8.4 -8.5) (end 15.4 -8.5) (layer "User.3") (width 0.12) (tstamp 02a751d1-dce4-49e1-8d90-24ca42a90da6))
  (fp_line (start -8.4 7) (end -8.4 8.5) (layer "User.3") (width 0.12) (tstamp 106b9b6d-3c6f-4d7f-b842-6771083c9ab5))
  (fp_line (start 8.4 8.5) (end 8.4 7) (layer "User.3") (width 0.12) (tstamp 22ef7aed-8529-41c0-ac12-a78c0ccbd8ca))
  (fp_line (start -8.4 8.5) (end -15.4 8.5) (layer "User.3") (width 0.12) (tstamp 263a2c7c-5c6c-4df4-9e15-c7ac976186ab))
  (fp_line (start 8.4 7) (end -8.4 7) (layer "User.3") (width 0.12) (tstamp 3e3341fe-2983-46ce-8918-7e225c442cc5))
  (fp_line (start 15.4 -8.5) (end 15.4 8.5) (layer "User.3") (width 0.12) (tstamp 4ab43614-b687-4962-8ba9-bbfc2f7e4dbf))
  (fp_line (start 15.4 8.5) (end 8.4 8.5) (layer "User.3") (width 0.12) (tstamp 52e01ca4-0608-4bca-a2d2-56274a9b4be7))
  (fp_line (start -15.4 8.5) (end -15.4 -8.5) (layer "User.3") (width 0.12) (tstamp 5b8e2946-2494-4abe-aa63-76708c61cfbe))
  (fp_line (start -15.4 -8.5) (end -8.4 -8.5) (layer "User.3") (width 0.12) (tstamp 5f495293-0d34-4bba-b2d1-579c433f69b6))
  (fp_line (start -8.4 -7) (end 8.4 -7) (layer "User.3") (width 0.12) (tstamp 76d5b0c5-61b6-454b-849f-82d821a685c2))
  (fp_line (start 8.4 -7) (end 8.4 -8.5) (layer "User.3") (width 0.12) (tstamp 7bd264eb-f589-4ae2-81cb-92b542bf5922))
  (fp_line (start -8.4 -8.5) (end -8.4 -7) (layer "User.3") (width 0.12) (tstamp d42f4a51-4702-4553-a977-7d69bac17e22))
  (fp_rect (start -7 -7) (end 7 7) (layer "User.8") (width 0.12) (fill none) (tstamp 10606521-57f7-48f6-96cf-cc87687ce1ba))
  (pad "" np_thru_hole circle (at -5.08 0 48.0996) (size 1.75 1.75) (drill 1.75) (layers *.Cu *.Mask) (tstamp 06033c69-762d-4eb4-8ac2-2be14ea74158))
  (pad "" np_thru_hole circle (at 0 0) (size 3.9878 3.9878) (drill 3.9878) (layers *.Cu *.Mask) (tstamp 14ce066a-5e2f-41f8-a035-68ed7a7773ad))
  (pad "" np_thru_hole circle (at 11.90625 8.255) (size 3.9878 3.9878) (drill 3.9878) (layers *.Cu *.Mask) (tstamp 42588f78-17b2-4dbb-8115-adbeef3af14b))
  (pad "" np_thru_hole circle (at -11.90625 8.255) (size 3.9878 3.9878) (drill 3.9878) (layers *.Cu *.Mask) (tstamp 873fb242-8c0a-4873-ae9f-61149d8be061))
  (pad "" np_thru_hole circle (at -11.90625 -6.985) (size 3.048 3.048) (drill 3.048) (layers *.Cu *.Mask) (tstamp 970cbab9-2b05-4133-b141-bf54d589b0bf))
  (pad "" np_thru_hole circle (at 11.90625 -6.985) (size 3.048 3.048) (drill 3.048) (layers *.Cu *.Mask) (tstamp bcca3831-ce1a-4bc7-a703-52a412a3f8b6))
  (pad "" np_thru_hole circle (at 5.08 0 48.0996) (size 1.75 1.75) (drill 1.75) (layers *.Cu *.Mask) (tstamp db6d06b7-4c94-4044-94a0-1e34ac0c858a))
  (pad "1" thru_hole circle (at -3.81 -2.54) (size 2.25 2.25) (drill 1.47) (layers *.Cu "B.Mask") (tstamp ca73487e-1dd1-4492-9285-2add8ef95547))
  (pad "2" thru_hole circle (at 2.54 -5.08) (size 2.25 2.25) (drill 1.47) (layers *.Cu "B.Mask") (tstamp 822e17fe-0edd-47a7-9629-bd9303e14ad6))
)
