999
FreeCAD v0.19 24366 (Git)
  0
SECTION
  2
HEADER
  9
$ACADVER
  1
AC1014
  9
$ACADMAINTVER
 70
     9
  9
$DWGCODEPAGE
  3
ANSI_1252
  9
$TEXTSTYLE
  7
STANDARD
  9
$DIMSTYLE
  2
STANDARD
  9
$DIMTXSTY
  7
STANDARD
  9
$CMLSTYLE
  2
STANDARD
  9
$PEXTMAX
 10
50
 20
50
 30
50
  9
$PEXTMIN
 10
0
 20
0
 30
0
  9
$HANDSEED
  5
FFFF
  0
ENDSEC
  0
SECTION
  2
CLASSES
  0
CLASS
  1
ACDBDICTIONARYWDFLT
  2
AcDbDictionaryWithDefault
  3
ObjectDBX Classes
 90
        0
280
     0
281
     0
  0
CLASS
  1
XRECORD
  2
AcDbXrecord
  3
ObjectDBX Classes
 90
        0
280
     0
281
     0
  0
CLASS
  1
LWPOLYLINE
  2
AcDbPolyline
  3
ObjectDBX Classes
 90
        0
280
     0
281
     1
  0
ENDSEC
  0
SECTION
  2
TABLES
  0
TABLE
  2
VPORT
  5
20
330
0
100
AcDbSymbolTable
 70
     1
  0
VPORT
  5
21
330
20
100
AcDbSymbolTableRecord
100
AcDbViewportTableRecord
  2
*ACTIVE
 70
     0
  0
ENDTAB
  0
TABLE
  2
LTYPE
  5
22
330
0
100
AcDbSymbolTable
 70
     1
  0
LTYPE
  5
23
330
21
100
AcDbSymbolTableRecord
100
AcDbLinetypeTableRecord
  2
BYBLOCK
 70
     0
  3

 72
    65
 73
     0
 40
0.0
  0
LTYPE
  5
24
330
21
100
AcDbSymbolTableRecord
100
AcDbLinetypeTableRecord
  2
BYLAYER
 70
     0
  3

 72
    65
 73
     0
 40
0.0
  0
LTYPE
  5
25
330
21
100
AcDbSymbolTableRecord
100
AcDbLinetypeTableRecord
  2
CONTINUOUS
 70
     0
  3
Solid line
 72
    65
 73
     0
 40
0.0
  0
ENDTAB
  0
TABLE
  2
LAYER
  5
ACC
330
0
100
AcDbSymbolTable
 70
3
  0
LAYER
  5
ACD
330
ACC
100
AcDbSymbolTableRecord
100
AcDbLayerTableRecord
  2
0
 70
   0
 62
   7
  6
CONTINUOUS
  0
LAYER
  5
ACE
330
ACC
100
AcDbSymbolTableRecord
100
AcDbLayerTableRecord
  2
none
 70
    0
 62
    7
  6
CONTINUOUS
  0
LAYER
  5
ACF
330
ACC
100
AcDbSymbolTableRecord
100
AcDbLayerTableRecord
  2
Shape2DView
 70
    0
 62
    7
  6
CONTINUOUS
  0
ENDTAB
  0
TABLE
  2
STYLE
  5
70
330
0
100
AcDbSymbolTable
 70
     2
  0
STYLE
  5
71
330
70
100
AcDbSymbolTableRecord
100
AcDbTextStyleTableRecord
  2
STANDARD
 70
     0
 40
0.0
 41
1.0
 50
0.0
 71
     0
 42
2.5
  3
arial.ttf
  4

  0
STYLE
  5
72
330
70
100
AcDbSymbolTableRecord
100
AcDbTextStyleTableRecord
  2
ANNOTATIVE
 70
     0
 40
0.0
 41
1.0
 50
0.0
 71
     0
 42
2.5
  3
arial.ttf
  4

  0
ENDTAB
  0
TABLE
  2
VIEW
  5
73
330
0
100
AcDbSymbolTable
 70
     0
  0
ENDTAB
  0
TABLE
  2
UCS
  5
74
330
0
100
AcDbSymbolTable
 70
     0
  0
ENDTAB
  0
TABLE
  2
APPID
  5
75
330
0
100
AcDbSymbolTable
 70
     2
  0
APPID
  5
76
330
75
100
AcDbSymbolTableRecord
100
AcDbRegAppTableRecord
  2
ACAD
 70
     0
  0
APPID
  5
77
330
75
100
AcDbSymbolTableRecord
100
AcDbRegAppTableRecord
  2
ACADANNOTATIVE
 70
     0
  0
ENDTAB
  0
TABLE
  2
DIMSTYLE
  5
78
330
0
100
AcDbSymbolTable
 70
     2
  0
DIMSTYLE
105
79
330
78
100
AcDbSymbolTableRecord
100
AcDbDimStyleTableRecord
  2
STANDARD
 70
     0
  3

  4

  5

  6

  7

 40
0.0
 41
2.5
 42
0.625
 43
3.75
 44
1.25
 45
0.0
 46
0.0
 47
0.0
 48
0.0
140
2.5
141
2.5
142
0.0
143
0.03937007874016
144
1.0
145
0.0
146
1.0
147
0.625
 71
     0
 72
     0
 73
     0
 74
     0
 75
     0
 76
     0
 77
     1
 78
     8
170
     0
171
     3
172
     1
173
     0
174
     0
175
     0
176
     0
177
     0
178
     0
270
     2
271
     2
272
     2
273
     2
274
     3
340
71
275
     0
280
     0
281
     0
282
     0
283
     0
284
     8
285
     0
286
     0
287
     3
288
     0
  0
ENDTAB
  0
TABLE
  2
BLOCK_RECORD
  5
A01
330
0
100
AcDbSymbolTable
  70
5
  0
BLOCK_RECORD
  5
A02
330
A01
100
AcDbSymbolTableRecord
100
AcDbBlockTableRecord
  2
*MODEL_SPACE
  0
BLOCK_RECORD
  5
A03
330
A01
100
AcDbSymbolTableRecord
100
AcDbBlockTableRecord
  2
*PAPER_SPACE
  0
ENDTAB
  0
ENDSEC
  0
SECTION
  2
BLOCKS
  0
BLOCK
  5
A04
330
A02
100
AcDbEntity
  8
0
100
AcDbBlockBegin
  2
*MODEL_SPACE
 70
   0
 10
0
 20
0
 30
0
  3
*MODEL_SPACE
  1
 
  0
ENDBLK
  5
A05
330
A02
100
AcDbEntity
  8
0
100
AcDbBlockEnd
  0
BLOCK
  5
A06
330
A03
100
AcDbEntity
 67
1
  8
0
100
AcDbBlockBegin
  2
*PAPER_SPACE
 70
   0
 10
0
 20
0
 30
0
  3
*PAPER_SPACE
  1
 
  0
ENDBLK
  5
A07
330
A03
100
AcDbEntity
 67
    1
  8
0
100
AcDbBlockEnd
  0
ENDSEC
  0
SECTION
  2
ENTITIES
  0
SPLINE
  5
A08
330
A02
100
AcDbEntity
  8
Shape2DView
100
AcDbSpline
210
0
220
0
230
1
 70
8
 71
1
 72
4
 73
2
 74
0
 40
0
 40
0
 40
1.4e+07
 40
1.4e+07
 10
248.237
 20
-31.9527
 30
0
 10
262.024
 20
-29.5217
 30
0
  0
SPLINE
  5
A09
330
A02
100
AcDbEntity
  8
Shape2DView
100
AcDbSpline
210
0
220
0
230
1
 70
8
 71
1
 72
4
 73
2
 74
0
 40
0
 40
0
 40
1.4e+07
 40
1.4e+07
 10
262.024
 20
-29.5217
 30
0
 10
264.455
 20
-43.309
 30
0
  0
SPLINE
  5
A0A
330
A02
100
AcDbEntity
  8
Shape2DView
100
AcDbSpline
210
0
220
0
230
1
 70
8
 71
1
 72
4
 73
2
 74
0
 40
0
 40
0
 40
1.4e+07
 40
1.4e+07
 10
264.455
 20
-43.309
 30
0
 10
250.668
 20
-45.74
 30
0
  0
SPLINE
  5
A0B
330
A02
100
AcDbEntity
  8
Shape2DView
100
AcDbSpline
210
0
220
0
230
1
 70
8
 71
1
 72
4
 73
2
 74
0
 40
0
 40
0
 40
1.4e+07
 40
1.4e+07
 10
250.668
 20
-45.74
 30
0
 10
248.237
 20
-31.9527
 30
0
  0
SPLINE
  5
A0C
330
A02
100
AcDbEntity
  8
Shape2DView
100
AcDbSpline
210
0
220
0
230
1
 70
8
 71
1
 72
4
 73
2
 74
0
 40
0
 40
0
 40
1.4e+07
 40
1.4e+07
 10
28.7651
 20
-31.9
 30
0
 10
14.9778
 20
-29.4689
 30
0
  0
SPLINE
  5
A0D
330
A02
100
AcDbEntity
  8
Shape2DView
100
AcDbSpline
210
0
220
0
230
1
 70
8
 71
1
 72
4
 73
2
 74
0
 40
0
 40
0
 40
1.4e+07
 40
1.4e+07
 10
14.9778
 20
-29.4689
 30
0
 10
12.5467
 20
-43.2562
 30
0
  0
SPLINE
  5
A0E
330
A02
100
AcDbEntity
  8
Shape2DView
100
AcDbSpline
210
0
220
0
230
1
 70
8
 71
1
 72
4
 73
2
 74
0
 40
0
 40
0
 40
1.4e+07
 40
1.4e+07
 10
12.5467
 20
-43.2562
 30
0
 10
26.334
 20
-45.6873
 30
0
  0
SPLINE
  5
A0F
330
A02
100
AcDbEntity
  8
Shape2DView
100
AcDbSpline
210
0
220
0
230
1
 70
8
 71
1
 72
4
 73
2
 74
0
 40
0
 40
0
 40
1.4e+07
 40
1.4e+07
 10
26.334
 20
-45.6873
 30
0
 10
28.7651
 20
-31.9
 30
0
  0
SPLINE
  5
A10
330
A02
100
AcDbEntity
  8
Shape2DView
100
AcDbSpline
210
0
220
0
230
1
 70
8
 71
1
 72
4
 73
2
 74
0
 40
0
 40
0
 40
1.4e+07
 40
1.4e+07
 10
244.929
 20
-13.1921
 30
0
 10
258.716
 20
-10.7611
 30
0
  0
SPLINE
  5
A11
330
A02
100
AcDbEntity
  8
Shape2DView
100
AcDbSpline
210
0
220
0
230
1
 70
8
 71
1
 72
4
 73
2
 74
0
 40
0
 40
0
 40
1.4e+07
 40
1.4e+07
 10
258.716
 20
-10.7611
 30
0
 10
261.147
 20
-24.5484
 30
0
  0
SPLINE
  5
A12
330
A02
100
AcDbEntity
  8
Shape2DView
100
AcDbSpline
210
0
220
0
230
1
 70
8
 71
1
 72
4
 73
2
 74
0
 40
0
 40
0
 40
1.4e+07
 40
1.4e+07
 10
261.147
 20
-24.5484
 30
0
 10
247.36
 20
-26.9795
 30
0
  0
SPLINE
  5
A13
330
A02
100
AcDbEntity
  8
Shape2DView
100
AcDbSpline
210
0
220
0
230
1
 70
8
 71
1
 72
4
 73
2
 74
0
 40
0
 40
0
 40
1.4e+07
 40
1.4e+07
 10
247.36
 20
-26.9795
 30
0
 10
244.929
 20
-13.1921
 30
0
  0
SPLINE
  5
A14
330
A02
100
AcDbEntity
  8
Shape2DView
100
AcDbSpline
210
0
220
0
230
1
 70
8
 71
1
 72
4
 73
2
 74
0
 40
0
 40
0
 40
1.4e+07
 40
1.4e+07
 10
25.4571
 20
-50.6605
 30
0
 10
11.6698
 20
-48.2295
 30
0
  0
SPLINE
  5
A15
330
A02
100
AcDbEntity
  8
Shape2DView
100
AcDbSpline
210
0
220
0
230
1
 70
8
 71
1
 72
4
 73
2
 74
0
 40
0
 40
0
 40
1.4e+07
 40
1.4e+07
 10
11.6698
 20
-48.2295
 30
0
 10
9.2387
 20
-62.0168
 30
0
  0
SPLINE
  5
A16
330
A02
100
AcDbEntity
  8
Shape2DView
100
AcDbSpline
210
0
220
0
230
1
 70
8
 71
1
 72
4
 73
2
 74
0
 40
0
 40
0
 40
1.4e+07
 40
1.4e+07
 10
9.2387
 20
-62.0168
 30
0
 10
23.026
 20
-64.4479
 30
0
  0
SPLINE
  5
A17
330
A02
100
AcDbEntity
  8
Shape2DView
100
AcDbSpline
210
0
220
0
230
1
 70
8
 71
1
 72
4
 73
2
 74
0
 40
0
 40
0
 40
1.4e+07
 40
1.4e+07
 10
23.026
 20
-64.4479
 30
0
 10
25.4571
 20
-50.6605
 30
0
  0
SPLINE
  5
A18
330
A02
100
AcDbEntity
  8
Shape2DView
100
AcDbSpline
210
0
220
0
230
1
 70
8
 71
1
 72
4
 73
2
 74
0
 40
0
 40
0
 40
1.4e+07
 40
1.4e+07
 10
251.545
 20
-50.7133
 30
0
 10
265.332
 20
-48.2822
 30
0
  0
SPLINE
  5
A19
330
A02
100
AcDbEntity
  8
Shape2DView
100
AcDbSpline
210
0
220
0
230
1
 70
8
 71
1
 72
4
 73
2
 74
0
 40
0
 40
0
 40
1.4e+07
 40
1.4e+07
 10
265.332
 20
-48.2822
 30
0
 10
267.763
 20
-62.0696
 30
0
  0
SPLINE
  5
A1A
330
A02
100
AcDbEntity
  8
Shape2DView
100
AcDbSpline
210
0
220
0
230
1
 70
8
 71
1
 72
4
 73
2
 74
0
 40
0
 40
0
 40
1.4e+07
 40
1.4e+07
 10
267.763
 20
-62.0696
 30
0
 10
253.976
 20
-64.5006
 30
0
  0
SPLINE
  5
A1B
330
A02
100
AcDbEntity
  8
Shape2DView
100
AcDbSpline
210
0
220
0
230
1
 70
8
 71
1
 72
4
 73
2
 74
0
 40
0
 40
0
 40
1.4e+07
 40
1.4e+07
 10
253.976
 20
-64.5006
 30
0
 10
251.545
 20
-50.7133
 30
0
  0
SPLINE
  5
A1C
330
A02
100
AcDbEntity
  8
Shape2DView
100
AcDbSpline
210
0
220
0
230
1
 70
8
 71
1
 72
4
 73
2
 74
0
 40
0
 40
0
 40
1.4e+07
 40
1.4e+07
 10
27.1224
 20
-70.2981
 30
0
 10
40.9097
 20
-72.7291
 30
0
  0
SPLINE
  5
A1D
330
A02
100
AcDbEntity
  8
Shape2DView
100
AcDbSpline
210
0
220
0
230
1
 70
8
 71
1
 72
4
 73
2
 74
0
 40
0
 40
0
 40
1.4e+07
 40
1.4e+07
 10
40.9097
 20
-72.7291
 30
0
 10
38.4786
 20
-86.5164
 30
0
  0
SPLINE
  5
A1E
330
A02
100
AcDbEntity
  8
Shape2DView
100
AcDbSpline
210
0
220
0
230
1
 70
8
 71
1
 72
4
 73
2
 74
0
 40
0
 40
0
 40
1.4e+07
 40
1.4e+07
 10
38.4786
 20
-86.5164
 30
0
 10
24.6913
 20
-84.0854
 30
0
  0
SPLINE
  5
A1F
330
A02
100
AcDbEntity
  8
Shape2DView
100
AcDbSpline
210
0
220
0
230
1
 70
8
 71
1
 72
4
 73
2
 74
0
 40
0
 40
0
 40
1.4e+07
 40
1.4e+07
 10
24.6913
 20
-84.0854
 30
0
 10
27.1224
 20
-70.2981
 30
0
  0
SPLINE
  5
A20
330
A02
100
AcDbEntity
  8
Shape2DView
100
AcDbSpline
210
0
220
0
230
1
 70
8
 71
1
 72
4
 73
2
 74
0
 40
0
 40
0
 40
1.4e+07
 40
1.4e+07
 10
32.0731
 20
-13.1394
 30
0
 10
18.2858
 20
-10.7083
 30
0
  0
SPLINE
  5
A21
330
A02
100
AcDbEntity
  8
Shape2DView
100
AcDbSpline
210
0
220
0
230
1
 70
8
 71
1
 72
4
 73
2
 74
0
 40
0
 40
0
 40
1.4e+07
 40
1.4e+07
 10
18.2858
 20
-10.7083
 30
0
 10
15.8547
 20
-24.4956
 30
0
  0
SPLINE
  5
A22
330
A02
100
AcDbEntity
  8
Shape2DView
100
AcDbSpline
210
0
220
0
230
1
 70
8
 71
1
 72
4
 73
2
 74
0
 40
0
 40
0
 40
1.4e+07
 40
1.4e+07
 10
15.8547
 20
-24.4956
 30
0
 10
29.642
 20
-26.9267
 30
0
  0
SPLINE
  5
A23
330
A02
100
AcDbEntity
  8
Shape2DView
100
AcDbSpline
210
0
220
0
230
1
 70
8
 71
1
 72
4
 73
2
 74
0
 40
0
 40
0
 40
1.4e+07
 40
1.4e+07
 10
29.642
 20
-26.9267
 30
0
 10
32.0731
 20
-13.1394
 30
0
  0
SPLINE
  5
A24
330
A02
100
AcDbEntity
  8
Shape2DView
100
AcDbSpline
210
0
220
0
230
1
 70
8
 71
1
 72
4
 73
2
 74
0
 40
0
 40
0
 40
1.4e+07
 40
1.4e+07
 10
22.1491
 20
-69.4211
 30
0
 10
8.36177
 20
-66.9901
 30
0
  0
SPLINE
  5
A25
330
A02
100
AcDbEntity
  8
Shape2DView
100
AcDbSpline
210
0
220
0
230
1
 70
8
 71
1
 72
4
 73
2
 74
0
 40
0
 40
0
 40
1.4e+07
 40
1.4e+07
 10
8.36177
 20
-66.9901
 30
0
 10
5.9307
 20
-80.7774
 30
0
  0
SPLINE
  5
A26
330
A02
100
AcDbEntity
  8
Shape2DView
100
AcDbSpline
210
0
220
0
230
1
 70
8
 71
1
 72
4
 73
2
 74
0
 40
0
 40
0
 40
1.4e+07
 40
1.4e+07
 10
5.9307
 20
-80.7774
 30
0
 10
19.718
 20
-83.2084
 30
0
  0
SPLINE
  5
A27
330
A02
100
AcDbEntity
  8
Shape2DView
100
AcDbSpline
210
0
220
0
230
1
 70
8
 71
1
 72
4
 73
2
 74
0
 40
0
 40
0
 40
1.4e+07
 40
1.4e+07
 10
19.718
 20
-83.2084
 30
0
 10
22.1491
 20
-69.4211
 30
0
  0
SPLINE
  5
A28
330
A02
100
AcDbEntity
  8
Shape2DView
100
AcDbSpline
210
0
220
0
230
1
 70
8
 71
1
 72
4
 73
2
 74
0
 40
0
 40
0
 40
1.4e+07
 40
1.4e+07
 10
254.853
 20
-69.4739
 30
0
 10
268.64
 20
-67.0428
 30
0
  0
SPLINE
  5
A29
330
A02
100
AcDbEntity
  8
Shape2DView
100
AcDbSpline
210
0
220
0
230
1
 70
8
 71
1
 72
4
 73
2
 74
0
 40
0
 40
0
 40
1.4e+07
 40
1.4e+07
 10
268.64
 20
-67.0428
 30
0
 10
271.071
 20
-80.8301
 30
0
  0
SPLINE
  5
A2A
330
A02
100
AcDbEntity
  8
Shape2DView
100
AcDbSpline
210
0
220
0
230
1
 70
8
 71
1
 72
4
 73
2
 74
0
 40
0
 40
0
 40
1.4e+07
 40
1.4e+07
 10
271.071
 20
-80.8301
 30
0
 10
257.284
 20
-83.2612
 30
0
  0
SPLINE
  5
A2B
330
A02
100
AcDbEntity
  8
Shape2DView
100
AcDbSpline
210
0
220
0
230
1
 70
8
 71
1
 72
4
 73
2
 74
0
 40
0
 40
0
 40
1.4e+07
 40
1.4e+07
 10
257.284
 20
-83.2612
 30
0
 10
254.853
 20
-69.4739
 30
0
  0
SPLINE
  5
A2C
330
A02
100
AcDbEntity
  8
Shape2DView
100
AcDbSpline
210
0
220
0
230
1
 70
8
 71
1
 72
4
 73
2
 74
0
 40
0
 40
0
 40
1.4e+07
 40
1.4e+07
 10
249.88
 20
-70.3508
 30
0
 10
236.092
 20
-72.7819
 30
0
  0
SPLINE
  5
A2D
330
A02
100
AcDbEntity
  8
Shape2DView
100
AcDbSpline
210
0
220
0
230
1
 70
8
 71
1
 72
4
 73
2
 74
0
 40
0
 40
0
 40
1.4e+07
 40
1.4e+07
 10
236.092
 20
-72.7819
 30
0
 10
238.523
 20
-86.5692
 30
0
  0
SPLINE
  5
A2E
330
A02
100
AcDbEntity
  8
Shape2DView
100
AcDbSpline
210
0
220
0
230
1
 70
8
 71
1
 72
4
 73
2
 74
0
 40
0
 40
0
 40
1.4e+07
 40
1.4e+07
 10
238.523
 20
-86.5692
 30
0
 10
252.311
 20
-84.1381
 30
0
  0
SPLINE
  5
A2F
330
A02
100
AcDbEntity
  8
Shape2DView
100
AcDbSpline
210
0
220
0
230
1
 70
8
 71
1
 72
4
 73
2
 74
0
 40
0
 40
0
 40
1.4e+07
 40
1.4e+07
 10
252.311
 20
-84.1381
 30
0
 10
249.88
 20
-70.3508
 30
0
  0
SPLINE
  5
A30
330
A02
100
AcDbEntity
  8
Shape2DView
100
AcDbSpline
210
0
220
0
230
1
 70
8
 71
1
 72
4
 73
2
 74
0
 40
0
 40
0
 40
1.4e+07
 40
1.4e+07
 10
102.165
 20
-83.53
 30
0
 10
115.952
 20
-85.9611
 30
0
  0
SPLINE
  5
A31
330
A02
100
AcDbEntity
  8
Shape2DView
100
AcDbSpline
210
0
220
0
230
1
 70
8
 71
1
 72
4
 73
2
 74
0
 40
0
 40
0
 40
1.4e+07
 40
1.4e+07
 10
115.952
 20
-85.9611
 30
0
 10
113.521
 20
-99.7484
 30
0
  0
SPLINE
  5
A32
330
A02
100
AcDbEntity
  8
Shape2DView
100
AcDbSpline
210
0
220
0
230
1
 70
8
 71
1
 72
4
 73
2
 74
0
 40
0
 40
0
 40
1.4e+07
 40
1.4e+07
 10
113.521
 20
-99.7484
 30
0
 10
99.7336
 20
-97.3174
 30
0
  0
SPLINE
  5
A33
330
A02
100
AcDbEntity
  8
Shape2DView
100
AcDbSpline
210
0
220
0
230
1
 70
8
 71
1
 72
4
 73
2
 74
0
 40
0
 40
0
 40
1.4e+07
 40
1.4e+07
 10
99.7336
 20
-97.3174
 30
0
 10
102.165
 20
-83.53
 30
0
  0
SPLINE
  5
A34
330
A02
100
AcDbEntity
  8
Shape2DView
100
AcDbSpline
210
0
220
0
230
1
 70
8
 71
1
 72
4
 73
2
 74
0
 40
0
 40
0
 40
1.4e+07
 40
1.4e+07
 10
95.5874
 20
-91.7503
 30
0
 10
81.8
 20
-89.3192
 30
0
  0
SPLINE
  5
A35
330
A02
100
AcDbEntity
  8
Shape2DView
100
AcDbSpline
210
0
220
0
230
1
 70
8
 71
1
 72
4
 73
2
 74
0
 40
0
 40
0
 40
1.4e+07
 40
1.4e+07
 10
81.8
 20
-89.3192
 30
0
 10
84.2311
 20
-75.5319
 30
0
  0
SPLINE
  5
A36
330
A02
100
AcDbEntity
  8
Shape2DView
100
AcDbSpline
210
0
220
0
230
1
 70
8
 71
1
 72
4
 73
2
 74
0
 40
0
 40
0
 40
1.4e+07
 40
1.4e+07
 10
84.2311
 20
-75.5319
 30
0
 10
98.0184
 20
-77.963
 30
0
  0
SPLINE
  5
A37
330
A02
100
AcDbEntity
  8
Shape2DView
100
AcDbSpline
210
0
220
0
230
1
 70
8
 71
1
 72
4
 73
2
 74
0
 40
0
 40
0
 40
1.4e+07
 40
1.4e+07
 10
98.0184
 20
-77.963
 30
0
 10
95.5874
 20
-91.7503
 30
0
  0
SPLINE
  5
A38
330
A02
100
AcDbEntity
  8
Shape2DView
100
AcDbSpline
210
0
220
0
230
1
 70
8
 71
1
 72
4
 73
2
 74
0
 40
0
 40
0
 40
1.4e+07
 40
1.4e+07
 10
143.116
 20
-94.012
 30
0
 10
156.904
 20
-91.581
 30
0
  0
SPLINE
  5
A39
330
A02
100
AcDbEntity
  8
Shape2DView
100
AcDbSpline
210
0
220
0
230
1
 70
8
 71
1
 72
4
 73
2
 74
0
 40
0
 40
0
 40
1.4e+07
 40
1.4e+07
 10
156.904
 20
-91.581
 30
0
 10
159.335
 20
-105.368
 30
0
  0
SPLINE
  5
A3A
330
A02
100
AcDbEntity
  8
Shape2DView
100
AcDbSpline
210
0
220
0
230
1
 70
8
 71
1
 72
4
 73
2
 74
0
 40
0
 40
0
 40
1.4e+07
 40
1.4e+07
 10
159.335
 20
-105.368
 30
0
 10
145.547
 20
-107.799
 30
0
  0
SPLINE
  5
A3B
330
A02
100
AcDbEntity
  8
Shape2DView
100
AcDbSpline
210
0
220
0
230
1
 70
8
 71
1
 72
4
 73
2
 74
0
 40
0
 40
0
 40
1.4e+07
 40
1.4e+07
 10
145.547
 20
-107.799
 30
0
 10
143.116
 20
-94.012
 30
0
  0
SPLINE
  5
A3C
330
A02
100
AcDbEntity
  8
Shape2DView
100
AcDbSpline
210
0
220
0
230
1
 70
8
 71
1
 72
4
 73
2
 74
0
 40
0
 40
0
 40
1.4e+07
 40
1.4e+07
 10
120.098
 20
-91.5282
 30
0
 10
133.886
 20
-93.9593
 30
0
  0
SPLINE
  5
A3D
330
A02
100
AcDbEntity
  8
Shape2DView
100
AcDbSpline
210
0
220
0
230
1
 70
8
 71
1
 72
4
 73
2
 74
0
 40
0
 40
0
 40
1.4e+07
 40
1.4e+07
 10
133.886
 20
-93.9593
 30
0
 10
131.455
 20
-107.747
 30
0
  0
SPLINE
  5
A3E
330
A02
100
AcDbEntity
  8
Shape2DView
100
AcDbSpline
210
0
220
0
230
1
 70
8
 71
1
 72
4
 73
2
 74
0
 40
0
 40
0
 40
1.4e+07
 40
1.4e+07
 10
131.455
 20
-107.747
 30
0
 10
117.667
 20
-105.315
 30
0
  0
SPLINE
  5
A3F
330
A02
100
AcDbEntity
  8
Shape2DView
100
AcDbSpline
210
0
220
0
230
1
 70
8
 71
1
 72
4
 73
2
 74
0
 40
0
 40
0
 40
1.4e+07
 40
1.4e+07
 10
117.667
 20
-105.315
 30
0
 10
120.098
 20
-91.5282
 30
0
  0
SPLINE
  5
A40
330
A02
100
AcDbEntity
  8
Shape2DView
100
AcDbSpline
210
0
220
0
230
1
 70
8
 71
1
 72
4
 73
2
 74
0
 40
0
 40
0
 40
1.4e+07
 40
1.4e+07
 10
161.05
 20
-86.0139
 30
0
 10
174.837
 20
-83.5828
 30
0
  0
SPLINE
  5
A41
330
A02
100
AcDbEntity
  8
Shape2DView
100
AcDbSpline
210
0
220
0
230
1
 70
8
 71
1
 72
4
 73
2
 74
0
 40
0
 40
0
 40
1.4e+07
 40
1.4e+07
 10
174.837
 20
-83.5828
 30
0
 10
177.268
 20
-97.3701
 30
0
  0
SPLINE
  5
A42
330
A02
100
AcDbEntity
  8
Shape2DView
100
AcDbSpline
210
0
220
0
230
1
 70
8
 71
1
 72
4
 73
2
 74
0
 40
0
 40
0
 40
1.4e+07
 40
1.4e+07
 10
177.268
 20
-97.3701
 30
0
 10
163.481
 20
-99.8012
 30
0
  0
SPLINE
  5
A43
330
A02
100
AcDbEntity
  8
Shape2DView
100
AcDbSpline
210
0
220
0
230
1
 70
8
 71
1
 72
4
 73
2
 74
0
 40
0
 40
0
 40
1.4e+07
 40
1.4e+07
 10
163.481
 20
-99.8012
 30
0
 10
161.05
 20
-86.0139
 30
0
  0
SPLINE
  5
A44
330
A02
100
AcDbEntity
  8
Shape2DView
100
AcDbSpline
210
0
220
0
230
1
 70
8
 71
1
 72
4
 73
2
 74
0
 40
0
 40
0
 40
1.4e+07
 40
1.4e+07
 10
195.202
 20
-89.372
 30
0
 10
181.415
 20
-91.8031
 30
0
  0
SPLINE
  5
A45
330
A02
100
AcDbEntity
  8
Shape2DView
100
AcDbSpline
210
0
220
0
230
1
 70
8
 71
1
 72
4
 73
2
 74
0
 40
0
 40
0
 40
1.4e+07
 40
1.4e+07
 10
181.415
 20
-91.8031
 30
0
 10
178.984
 20
-78.0158
 30
0
  0
SPLINE
  5
A46
330
A02
100
AcDbEntity
  8
Shape2DView
100
AcDbSpline
210
0
220
0
230
1
 70
8
 71
1
 72
4
 73
2
 74
0
 40
0
 40
0
 40
1.4e+07
 40
1.4e+07
 10
178.984
 20
-78.0158
 30
0
 10
192.771
 20
-75.5847
 30
0
  0
SPLINE
  5
A47
330
A02
100
AcDbEntity
  8
Shape2DView
100
AcDbSpline
210
0
220
0
230
1
 70
8
 71
1
 72
4
 73
2
 74
0
 40
0
 40
0
 40
1.4e+07
 40
1.4e+07
 10
192.771
 20
-75.5847
 30
0
 10
195.202
 20
-89.372
 30
0
  0
SPLINE
  5
A48
330
A02
100
AcDbEntity
  8
Shape2DView
100
AcDbSpline
210
0
220
0
230
1
 70
8
 71
1
 72
4
 73
2
 74
0
 40
0
 40
0
 40
1.4e+07
 40
1.4e+07
 10
72.9135
 20
-30.0126
 30
0
 10
86.7008
 20
-32.4437
 30
0
  0
SPLINE
  5
A49
330
A02
100
AcDbEntity
  8
Shape2DView
100
AcDbSpline
210
0
220
0
230
1
 70
8
 71
1
 72
4
 73
2
 74
0
 40
0
 40
0
 40
1.4e+07
 40
1.4e+07
 10
86.7008
 20
-32.4437
 30
0
 10
84.2698
 20
-46.231
 30
0
  0
SPLINE
  5
A4A
330
A02
100
AcDbEntity
  8
Shape2DView
100
AcDbSpline
210
0
220
0
230
1
 70
8
 71
1
 72
4
 73
2
 74
0
 40
0
 40
0
 40
1.4e+07
 40
1.4e+07
 10
84.2698
 20
-46.231
 30
0
 10
70.4825
 20
-43.7999
 30
0
  0
SPLINE
  5
A4B
330
A02
100
AcDbEntity
  8
Shape2DView
100
AcDbSpline
210
0
220
0
230
1
 70
8
 71
1
 72
4
 73
2
 74
0
 40
0
 40
0
 40
1.4e+07
 40
1.4e+07
 10
70.4825
 20
-43.7999
 30
0
 10
72.9135
 20
-30.0126
 30
0
  0
SPLINE
  5
A4C
330
A02
100
AcDbEntity
  8
Shape2DView
100
AcDbSpline
210
0
220
0
230
1
 70
8
 71
1
 72
4
 73
2
 74
0
 40
0
 40
0
 40
1.4e+07
 40
1.4e+07
 10
190.301
 20
-32.4964
 30
0
 10
204.088
 20
-30.0654
 30
0
  0
SPLINE
  5
A4D
330
A02
100
AcDbEntity
  8
Shape2DView
100
AcDbSpline
210
0
220
0
230
1
 70
8
 71
1
 72
4
 73
2
 74
0
 40
0
 40
0
 40
1.4e+07
 40
1.4e+07
 10
204.088
 20
-30.0654
 30
0
 10
206.52
 20
-43.8527
 30
0
  0
SPLINE
  5
A4E
330
A02
100
AcDbEntity
  8
Shape2DView
100
AcDbSpline
210
0
220
0
230
1
 70
8
 71
1
 72
4
 73
2
 74
0
 40
0
 40
0
 40
1.4e+07
 40
1.4e+07
 10
206.52
 20
-43.8527
 30
0
 10
192.732
 20
-46.2837
 30
0
  0
SPLINE
  5
A4F
330
A02
100
AcDbEntity
  8
Shape2DView
100
AcDbSpline
210
0
220
0
230
1
 70
8
 71
1
 72
4
 73
2
 74
0
 40
0
 40
0
 40
1.4e+07
 40
1.4e+07
 10
192.732
 20
-46.2837
 30
0
 10
190.301
 20
-32.4964
 30
0
  0
SPLINE
  5
A50
330
A02
100
AcDbEntity
  8
Shape2DView
100
AcDbSpline
210
0
220
0
230
1
 70
8
 71
1
 72
4
 73
2
 74
0
 40
0
 40
0
 40
1.4e+07
 40
1.4e+07
 10
157.742
 20
-67.2533
 30
0
 10
171.529
 20
-64.8222
 30
0
  0
SPLINE
  5
A51
330
A02
100
AcDbEntity
  8
Shape2DView
100
AcDbSpline
210
0
220
0
230
1
 70
8
 71
1
 72
4
 73
2
 74
0
 40
0
 40
0
 40
1.4e+07
 40
1.4e+07
 10
171.529
 20
-64.8222
 30
0
 10
173.96
 20
-78.6095
 30
0
  0
SPLINE
  5
A52
330
A02
100
AcDbEntity
  8
Shape2DView
100
AcDbSpline
210
0
220
0
230
1
 70
8
 71
1
 72
4
 73
2
 74
0
 40
0
 40
0
 40
1.4e+07
 40
1.4e+07
 10
173.96
 20
-78.6095
 30
0
 10
160.173
 20
-81.0406
 30
0
  0
SPLINE
  5
A53
330
A02
100
AcDbEntity
  8
Shape2DView
100
AcDbSpline
210
0
220
0
230
1
 70
8
 71
1
 72
4
 73
2
 74
0
 40
0
 40
0
 40
1.4e+07
 40
1.4e+07
 10
160.173
 20
-81.0406
 30
0
 10
157.742
 20
-67.2533
 30
0
  0
SPLINE
  5
A54
330
A02
100
AcDbEntity
  8
Shape2DView
100
AcDbSpline
210
0
220
0
230
1
 70
8
 71
1
 72
4
 73
2
 74
0
 40
0
 40
0
 40
1.4e+07
 40
1.4e+07
 10
209.889
 20
-33.8786
 30
0
 10
223.676
 20
-31.4475
 30
0
  0
SPLINE
  5
A55
330
A02
100
AcDbEntity
  8
Shape2DView
100
AcDbSpline
210
0
220
0
230
1
 70
8
 71
1
 72
4
 73
2
 74
0
 40
0
 40
0
 40
1.4e+07
 40
1.4e+07
 10
223.676
 20
-31.4475
 30
0
 10
226.107
 20
-45.2348
 30
0
  0
SPLINE
  5
A56
330
A02
100
AcDbEntity
  8
Shape2DView
100
AcDbSpline
210
0
220
0
230
1
 70
8
 71
1
 72
4
 73
2
 74
0
 40
0
 40
0
 40
1.4e+07
 40
1.4e+07
 10
226.107
 20
-45.2348
 30
0
 10
212.32
 20
-47.6659
 30
0
  0
SPLINE
  5
A57
330
A02
100
AcDbEntity
  8
Shape2DView
100
AcDbSpline
210
0
220
0
230
1
 70
8
 71
1
 72
4
 73
2
 74
0
 40
0
 40
0
 40
1.4e+07
 40
1.4e+07
 10
212.32
 20
-47.6659
 30
0
 10
209.889
 20
-33.8786
 30
0
  0
SPLINE
  5
A58
330
A02
100
AcDbEntity
  8
Shape2DView
100
AcDbSpline
210
0
220
0
230
1
 70
8
 71
1
 72
4
 73
2
 74
0
 40
0
 40
0
 40
1.4e+07
 40
1.4e+07
 10
172.368
 20
-40.4946
 30
0
 10
186.155
 20
-38.0635
 30
0
  0
SPLINE
  5
A59
330
A02
100
AcDbEntity
  8
Shape2DView
100
AcDbSpline
210
0
220
0
230
1
 70
8
 71
1
 72
4
 73
2
 74
0
 40
0
 40
0
 40
1.4e+07
 40
1.4e+07
 10
186.155
 20
-38.0635
 30
0
 10
188.586
 20
-51.8508
 30
0
  0
SPLINE
  5
A5A
330
A02
100
AcDbEntity
  8
Shape2DView
100
AcDbSpline
210
0
220
0
230
1
 70
8
 71
1
 72
4
 73
2
 74
0
 40
0
 40
0
 40
1.4e+07
 40
1.4e+07
 10
188.586
 20
-51.8508
 30
0
 10
174.799
 20
-54.2819
 30
0
  0
SPLINE
  5
A5B
330
A02
100
AcDbEntity
  8
Shape2DView
100
AcDbSpline
210
0
220
0
230
1
 70
8
 71
1
 72
4
 73
2
 74
0
 40
0
 40
0
 40
1.4e+07
 40
1.4e+07
 10
174.799
 20
-54.2819
 30
0
 10
172.368
 20
-40.4946
 30
0
  0
SPLINE
  5
A5C
330
A02
100
AcDbEntity
  8
Shape2DView
100
AcDbSpline
210
0
220
0
230
1
 70
8
 71
1
 72
4
 73
2
 74
0
 40
0
 40
0
 40
1.4e+07
 40
1.4e+07
 10
69.6055
 20
-48.7732
 30
0
 10
83.3928
 20
-51.2042
 30
0
  0
SPLINE
  5
A5D
330
A02
100
AcDbEntity
  8
Shape2DView
100
AcDbSpline
210
0
220
0
230
1
 70
8
 71
1
 72
4
 73
2
 74
0
 40
0
 40
0
 40
1.4e+07
 40
1.4e+07
 10
83.3928
 20
-51.2042
 30
0
 10
80.9618
 20
-64.9916
 30
0
  0
SPLINE
  5
A5E
330
A02
100
AcDbEntity
  8
Shape2DView
100
AcDbSpline
210
0
220
0
230
1
 70
8
 71
1
 72
4
 73
2
 74
0
 40
0
 40
0
 40
1.4e+07
 40
1.4e+07
 10
80.9618
 20
-64.9916
 30
0
 10
67.1745
 20
-62.5605
 30
0
  0
SPLINE
  5
A5F
330
A02
100
AcDbEntity
  8
Shape2DView
100
AcDbSpline
210
0
220
0
230
1
 70
8
 71
1
 72
4
 73
2
 74
0
 40
0
 40
0
 40
1.4e+07
 40
1.4e+07
 10
67.1745
 20
-62.5605
 30
0
 10
69.6055
 20
-48.7732
 30
0
  0
SPLINE
  5
A60
330
A02
100
AcDbEntity
  8
Shape2DView
100
AcDbSpline
210
0
220
0
230
1
 70
8
 71
1
 72
4
 73
2
 74
0
 40
0
 40
0
 40
1.4e+07
 40
1.4e+07
 10
105.473
 20
-64.7695
 30
0
 10
119.26
 20
-67.2005
 30
0
  0
SPLINE
  5
A61
330
A02
100
AcDbEntity
  8
Shape2DView
100
AcDbSpline
210
0
220
0
230
1
 70
8
 71
1
 72
4
 73
2
 74
0
 40
0
 40
0
 40
1.4e+07
 40
1.4e+07
 10
119.26
 20
-67.2005
 30
0
 10
116.829
 20
-80.9878
 30
0
  0
SPLINE
  5
A62
330
A02
100
AcDbEntity
  8
Shape2DView
100
AcDbSpline
210
0
220
0
230
1
 70
8
 71
1
 72
4
 73
2
 74
0
 40
0
 40
0
 40
1.4e+07
 40
1.4e+07
 10
116.829
 20
-80.9878
 30
0
 10
103.042
 20
-78.5568
 30
0
  0
SPLINE
  5
A63
330
A02
100
AcDbEntity
  8
Shape2DView
100
AcDbSpline
210
0
220
0
230
1
 70
8
 71
1
 72
4
 73
2
 74
0
 40
0
 40
0
 40
1.4e+07
 40
1.4e+07
 10
103.042
 20
-78.5568
 30
0
 10
105.473
 20
-64.7695
 30
0
  0
SPLINE
  5
A64
330
A02
100
AcDbEntity
  8
Shape2DView
100
AcDbSpline
210
0
220
0
230
1
 70
8
 71
1
 72
4
 73
2
 74
0
 40
0
 40
0
 40
1.4e+07
 40
1.4e+07
 10
87.5391
 20
-56.7713
 30
0
 10
101.326
 20
-59.2024
 30
0
  0
SPLINE
  5
A65
330
A02
100
AcDbEntity
  8
Shape2DView
100
AcDbSpline
210
0
220
0
230
1
 70
8
 71
1
 72
4
 73
2
 74
0
 40
0
 40
0
 40
1.4e+07
 40
1.4e+07
 10
101.326
 20
-59.2024
 30
0
 10
98.8954
 20
-72.9897
 30
0
  0
SPLINE
  5
A66
330
A02
100
AcDbEntity
  8
Shape2DView
100
AcDbSpline
210
0
220
0
230
1
 70
8
 71
1
 72
4
 73
2
 74
0
 40
0
 40
0
 40
1.4e+07
 40
1.4e+07
 10
98.8954
 20
-72.9897
 30
0
 10
85.108
 20
-70.5586
 30
0
  0
SPLINE
  5
A67
330
A02
100
AcDbEntity
  8
Shape2DView
100
AcDbSpline
210
0
220
0
230
1
 70
8
 71
1
 72
4
 73
2
 74
0
 40
0
 40
0
 40
1.4e+07
 40
1.4e+07
 10
85.108
 20
-70.5586
 30
0
 10
87.5391
 20
-56.7713
 30
0
  0
SPLINE
  5
A68
330
A02
100
AcDbEntity
  8
Shape2DView
100
AcDbSpline
210
0
220
0
230
1
 70
8
 71
1
 72
4
 73
2
 74
0
 40
0
 40
0
 40
1.4e+07
 40
1.4e+07
 10
112.089
 20
-27.2483
 30
0
 10
125.876
 20
-29.6794
 30
0
  0
SPLINE
  5
A69
330
A02
100
AcDbEntity
  8
Shape2DView
100
AcDbSpline
210
0
220
0
230
1
 70
8
 71
1
 72
4
 73
2
 74
0
 40
0
 40
0
 40
1.4e+07
 40
1.4e+07
 10
125.876
 20
-29.6794
 30
0
 10
123.445
 20
-43.4667
 30
0
  0
SPLINE
  5
A6A
330
A02
100
AcDbEntity
  8
Shape2DView
100
AcDbSpline
210
0
220
0
230
1
 70
8
 71
1
 72
4
 73
2
 74
0
 40
0
 40
0
 40
1.4e+07
 40
1.4e+07
 10
123.445
 20
-43.4667
 30
0
 10
109.658
 20
-41.0356
 30
0
  0
SPLINE
  5
A6B
330
A02
100
AcDbEntity
  8
Shape2DView
100
AcDbSpline
210
0
220
0
230
1
 70
8
 71
1
 72
4
 73
2
 74
0
 40
0
 40
0
 40
1.4e+07
 40
1.4e+07
 10
109.658
 20
-41.0356
 30
0
 10
112.089
 20
-27.2483
 30
0
  0
SPLINE
  5
A6C
330
A02
100
AcDbEntity
  8
Shape2DView
100
AcDbSpline
210
0
220
0
230
1
 70
8
 71
1
 72
4
 73
2
 74
0
 40
0
 40
0
 40
1.4e+07
 40
1.4e+07
 10
50.0179
 20
-50.1553
 30
0
 10
63.8053
 20
-52.5864
 30
0
  0
SPLINE
  5
A6D
330
A02
100
AcDbEntity
  8
Shape2DView
100
AcDbSpline
210
0
220
0
230
1
 70
8
 71
1
 72
4
 73
2
 74
0
 40
0
 40
0
 40
1.4e+07
 40
1.4e+07
 10
63.8053
 20
-52.5864
 30
0
 10
61.3742
 20
-66.3737
 30
0
  0
SPLINE
  5
A6E
330
A02
100
AcDbEntity
  8
Shape2DView
100
AcDbSpline
210
0
220
0
230
1
 70
8
 71
1
 72
4
 73
2
 74
0
 40
0
 40
0
 40
1.4e+07
 40
1.4e+07
 10
61.3742
 20
-66.3737
 30
0
 10
47.5869
 20
-63.9426
 30
0
  0
SPLINE
  5
A6F
330
A02
100
AcDbEntity
  8
Shape2DView
100
AcDbSpline
210
0
220
0
230
1
 70
8
 71
1
 72
4
 73
2
 74
0
 40
0
 40
0
 40
1.4e+07
 40
1.4e+07
 10
47.5869
 20
-63.9426
 30
0
 10
50.0179
 20
-50.1553
 30
0
  0
SPLINE
  5
A70
330
A02
100
AcDbEntity
  8
Shape2DView
100
AcDbSpline
210
0
220
0
230
1
 70
8
 71
1
 72
4
 73
2
 74
0
 40
0
 40
0
 40
1.4e+07
 40
1.4e+07
 10
213.197
 20
-52.6392
 30
0
 10
226.984
 20
-50.2081
 30
0
  0
SPLINE
  5
A71
330
A02
100
AcDbEntity
  8
Shape2DView
100
AcDbSpline
210
0
220
0
230
1
 70
8
 71
1
 72
4
 73
2
 74
0
 40
0
 40
0
 40
1.4e+07
 40
1.4e+07
 10
226.984
 20
-50.2081
 30
0
 10
229.415
 20
-63.9954
 30
0
  0
SPLINE
  5
A72
330
A02
100
AcDbEntity
  8
Shape2DView
100
AcDbSpline
210
0
220
0
230
1
 70
8
 71
1
 72
4
 73
2
 74
0
 40
0
 40
0
 40
1.4e+07
 40
1.4e+07
 10
229.415
 20
-63.9954
 30
0
 10
215.628
 20
-66.4265
 30
0
  0
SPLINE
  5
A73
330
A02
100
AcDbEntity
  8
Shape2DView
100
AcDbSpline
210
0
220
0
230
1
 70
8
 71
1
 72
4
 73
2
 74
0
 40
0
 40
0
 40
1.4e+07
 40
1.4e+07
 10
215.628
 20
-66.4265
 30
0
 10
213.197
 20
-52.6392
 30
0
  0
SPLINE
  5
A74
330
A02
100
AcDbEntity
  8
Shape2DView
100
AcDbSpline
210
0
220
0
230
1
 70
8
 71
1
 72
4
 73
2
 74
0
 40
0
 40
0
 40
1.4e+07
 40
1.4e+07
 10
151.126
 20
-29.7321
 30
0
 10
164.913
 20
-27.3011
 30
0
  0
SPLINE
  5
A75
330
A02
100
AcDbEntity
  8
Shape2DView
100
AcDbSpline
210
0
220
0
230
1
 70
8
 71
1
 72
4
 73
2
 74
0
 40
0
 40
0
 40
1.4e+07
 40
1.4e+07
 10
164.913
 20
-27.3011
 30
0
 10
167.344
 20
-41.0884
 30
0
  0
SPLINE
  5
A76
330
A02
100
AcDbEntity
  8
Shape2DView
100
AcDbSpline
210
0
220
0
230
1
 70
8
 71
1
 72
4
 73
2
 74
0
 40
0
 40
0
 40
1.4e+07
 40
1.4e+07
 10
167.344
 20
-41.0884
 30
0
 10
153.557
 20
-43.5194
 30
0
  0
SPLINE
  5
A77
330
A02
100
AcDbEntity
  8
Shape2DView
100
AcDbSpline
210
0
220
0
230
1
 70
8
 71
1
 72
4
 73
2
 74
0
 40
0
 40
0
 40
1.4e+07
 40
1.4e+07
 10
153.557
 20
-43.5194
 30
0
 10
151.126
 20
-29.7321
 30
0
  0
SPLINE
  5
A78
330
A02
100
AcDbEntity
  8
Shape2DView
100
AcDbSpline
210
0
220
0
230
1
 70
8
 71
1
 72
4
 73
2
 74
0
 40
0
 40
0
 40
1.4e+07
 40
1.4e+07
 10
64.6316
 20
-76.8311
 30
0
 10
78.4189
 20
-79.2621
 30
0
  0
SPLINE
  5
A79
330
A02
100
AcDbEntity
  8
Shape2DView
100
AcDbSpline
210
0
220
0
230
1
 70
8
 71
1
 72
4
 73
2
 74
0
 40
0
 40
0
 40
1.4e+07
 40
1.4e+07
 10
78.4189
 20
-79.2621
 30
0
 10
75.9879
 20
-93.0494
 30
0
  0
SPLINE
  5
A7A
330
A02
100
AcDbEntity
  8
Shape2DView
100
AcDbSpline
210
0
220
0
230
1
 70
8
 71
1
 72
4
 73
2
 74
0
 40
0
 40
0
 40
1.4e+07
 40
1.4e+07
 10
75.9879
 20
-93.0494
 30
0
 10
62.2006
 20
-90.6184
 30
0
  0
SPLINE
  5
A7B
330
A02
100
AcDbEntity
  8
Shape2DView
100
AcDbSpline
210
0
220
0
230
1
 70
8
 71
1
 72
4
 73
2
 74
0
 40
0
 40
0
 40
1.4e+07
 40
1.4e+07
 10
62.2006
 20
-90.6184
 30
0
 10
64.6316
 20
-76.8311
 30
0
  0
SPLINE
  5
A7C
330
A02
100
AcDbEntity
  8
Shape2DView
100
AcDbSpline
210
0
220
0
230
1
 70
8
 71
1
 72
4
 73
2
 74
0
 40
0
 40
0
 40
1.4e+07
 40
1.4e+07
 10
226.168
 20
-16.5001
 30
0
 10
239.956
 20
-14.0691
 30
0
  0
SPLINE
  5
A7D
330
A02
100
AcDbEntity
  8
Shape2DView
100
AcDbSpline
210
0
220
0
230
1
 70
8
 71
1
 72
4
 73
2
 74
0
 40
0
 40
0
 40
1.4e+07
 40
1.4e+07
 10
239.956
 20
-14.0691
 30
0
 10
242.387
 20
-27.8564
 30
0
  0
SPLINE
  5
A7E
330
A02
100
AcDbEntity
  8
Shape2DView
100
AcDbSpline
210
0
220
0
230
1
 70
8
 71
1
 72
4
 73
2
 74
0
 40
0
 40
0
 40
1.4e+07
 40
1.4e+07
 10
242.387
 20
-27.8564
 30
0
 10
228.599
 20
-30.2874
 30
0
  0
SPLINE
  5
A7F
330
A02
100
AcDbEntity
  8
Shape2DView
100
AcDbSpline
210
0
220
0
230
1
 70
8
 71
1
 72
4
 73
2
 74
0
 40
0
 40
0
 40
1.4e+07
 40
1.4e+07
 10
228.599
 20
-30.2874
 30
0
 10
226.168
 20
-16.5001
 30
0
  0
SPLINE
  5
A80
330
A02
100
AcDbEntity
  8
Shape2DView
100
AcDbSpline
210
0
220
0
230
1
 70
8
 71
1
 72
4
 73
2
 74
0
 40
0
 40
0
 40
1.4e+07
 40
1.4e+07
 10
198.599
 20
-79.2621
 30
0
 10
212.386
 20
-76.8311
 30
0
  0
SPLINE
  5
A81
330
A02
100
AcDbEntity
  8
Shape2DView
100
AcDbSpline
210
0
220
0
230
1
 70
8
 71
1
 72
4
 73
2
 74
0
 40
0
 40
0
 40
1.4e+07
 40
1.4e+07
 10
212.386
 20
-76.8311
 30
0
 10
214.817
 20
-90.6184
 30
0
  0
SPLINE
  5
A82
330
A02
100
AcDbEntity
  8
Shape2DView
100
AcDbSpline
210
0
220
0
230
1
 70
8
 71
1
 72
4
 73
2
 74
0
 40
0
 40
0
 40
1.4e+07
 40
1.4e+07
 10
214.817
 20
-90.6184
 30
0
 10
201.03
 20
-93.0494
 30
0
  0
SPLINE
  5
A83
330
A02
100
AcDbEntity
  8
Shape2DView
100
AcDbSpline
210
0
220
0
230
1
 70
8
 71
1
 72
4
 73
2
 74
0
 40
0
 40
0
 40
1.4e+07
 40
1.4e+07
 10
201.03
 20
-93.0494
 30
0
 10
198.599
 20
-79.2621
 30
0
  0
SPLINE
  5
A84
330
A02
100
AcDbEntity
  8
Shape2DView
100
AcDbSpline
210
0
220
0
230
1
 70
8
 71
1
 72
4
 73
2
 74
0
 40
0
 40
0
 40
1.32e+07
 40
1.32e+07
 10
145.109
 20
-77.525
 30
0
 10
131.909
 20
-77.525
 30
0
  0
SPLINE
  5
A85
330
A02
100
AcDbEntity
  8
Shape2DView
100
AcDbSpline
210
0
220
0
230
1
 70
8
 71
1
 72
4
 73
2
 74
0
 40
0
 40
0
 40
1.4e+07
 40
1.4e+07
 10
131.909
 20
-77.525
 30
0
 10
131.909
 20
-63.525
 30
0
  0
SPLINE
  5
A86
330
A02
100
AcDbEntity
  8
Shape2DView
100
AcDbSpline
210
0
220
0
230
1
 70
8
 71
1
 72
4
 73
2
 74
0
 40
0
 40
0
 40
1.32e+07
 40
1.32e+07
 10
131.909
 20
-63.525
 30
0
 10
145.109
 20
-63.525
 30
0
  0
SPLINE
  5
A87
330
A02
100
AcDbEntity
  8
Shape2DView
100
AcDbSpline
210
0
220
0
230
1
 70
8
 71
1
 72
4
 73
2
 74
0
 40
0
 40
0
 40
1.4e+07
 40
1.4e+07
 10
145.109
 20
-63.525
 30
0
 10
145.109
 20
-77.525
 30
0
  0
SPLINE
  5
A88
330
A02
100
AcDbEntity
  8
Shape2DView
100
AcDbSpline
210
0
220
0
230
1
 70
8
 71
1
 72
4
 73
2
 74
0
 40
0
 40
0
 40
1.4e+07
 40
1.4e+07
 10
154.434
 20
-48.4927
 30
0
 10
168.221
 20
-46.0616
 30
0
  0
SPLINE
  5
A89
330
A02
100
AcDbEntity
  8
Shape2DView
100
AcDbSpline
210
0
220
0
230
1
 70
8
 71
1
 72
4
 73
2
 74
0
 40
0
 40
0
 40
1.4e+07
 40
1.4e+07
 10
168.221
 20
-46.0616
 30
0
 10
170.652
 20
-59.849
 30
0
  0
SPLINE
  5
A8A
330
A02
100
AcDbEntity
  8
Shape2DView
100
AcDbSpline
210
0
220
0
230
1
 70
8
 71
1
 72
4
 73
2
 74
0
 40
0
 40
0
 40
1.4e+07
 40
1.4e+07
 10
170.652
 20
-59.849
 30
0
 10
156.865
 20
-62.28
 30
0
  0
SPLINE
  5
A8B
330
A02
100
AcDbEntity
  8
Shape2DView
100
AcDbSpline
210
0
220
0
230
1
 70
8
 71
1
 72
4
 73
2
 74
0
 40
0
 40
0
 40
1.4e+07
 40
1.4e+07
 10
156.865
 20
-62.28
 30
0
 10
154.434
 20
-48.4927
 30
0
  0
SPLINE
  5
A8C
330
A02
100
AcDbEntity
  8
Shape2DView
100
AcDbSpline
210
0
220
0
230
1
 70
8
 71
1
 72
4
 73
2
 74
0
 40
0
 40
0
 40
1.4e+07
 40
1.4e+07
 10
169.06
 20
-21.734
 30
0
 10
182.847
 20
-19.3029
 30
0
  0
SPLINE
  5
A8D
330
A02
100
AcDbEntity
  8
Shape2DView
100
AcDbSpline
210
0
220
0
230
1
 70
8
 71
1
 72
4
 73
2
 74
0
 40
0
 40
0
 40
1.4e+07
 40
1.4e+07
 10
182.847
 20
-19.3029
 30
0
 10
185.278
 20
-33.0902
 30
0
  0
SPLINE
  5
A8E
330
A02
100
AcDbEntity
  8
Shape2DView
100
AcDbSpline
210
0
220
0
230
1
 70
8
 71
1
 72
4
 73
2
 74
0
 40
0
 40
0
 40
1.4e+07
 40
1.4e+07
 10
185.278
 20
-33.0902
 30
0
 10
171.491
 20
-35.5213
 30
0
  0
SPLINE
  5
A8F
330
A02
100
AcDbEntity
  8
Shape2DView
100
AcDbSpline
210
0
220
0
230
1
 70
8
 71
1
 72
4
 73
2
 74
0
 40
0
 40
0
 40
1.4e+07
 40
1.4e+07
 10
171.491
 20
-35.5213
 30
0
 10
169.06
 20
-21.734
 30
0
  0
SPLINE
  5
A90
330
A02
100
AcDbEntity
  8
Shape2DView
100
AcDbSpline
210
0
220
0
230
1
 70
8
 71
1
 72
4
 73
2
 74
0
 40
0
 40
0
 40
1.4e+07
 40
1.4e+07
 10
33.7384
 20
-32.7769
 30
0
 10
47.5257
 20
-35.208
 30
0
  0
SPLINE
  5
A91
330
A02
100
AcDbEntity
  8
Shape2DView
100
AcDbSpline
210
0
220
0
230
1
 70
8
 71
1
 72
4
 73
2
 74
0
 40
0
 40
0
 40
1.4e+07
 40
1.4e+07
 10
47.5257
 20
-35.208
 30
0
 10
45.0946
 20
-48.9953
 30
0
  0
SPLINE
  5
A92
330
A02
100
AcDbEntity
  8
Shape2DView
100
AcDbSpline
210
0
220
0
230
1
 70
8
 71
1
 72
4
 73
2
 74
0
 40
0
 40
0
 40
1.4e+07
 40
1.4e+07
 10
45.0946
 20
-48.9953
 30
0
 10
31.3073
 20
-46.5642
 30
0
  0
SPLINE
  5
A93
330
A02
100
AcDbEntity
  8
Shape2DView
100
AcDbSpline
210
0
220
0
230
1
 70
8
 71
1
 72
4
 73
2
 74
0
 40
0
 40
0
 40
1.4e+07
 40
1.4e+07
 10
31.3073
 20
-46.5642
 30
0
 10
33.7384
 20
-32.7769
 30
0
  0
SPLINE
  5
A94
330
A02
100
AcDbEntity
  8
Shape2DView
100
AcDbSpline
210
0
220
0
230
1
 70
8
 71
1
 72
4
 73
2
 74
0
 40
0
 40
0
 40
1.4e+07
 40
1.4e+07
 10
186.993
 20
-13.7358
 30
0
 10
200.78
 20
-11.3048
 30
0
  0
SPLINE
  5
A95
330
A02
100
AcDbEntity
  8
Shape2DView
100
AcDbSpline
210
0
220
0
230
1
 70
8
 71
1
 72
4
 73
2
 74
0
 40
0
 40
0
 40
1.4e+07
 40
1.4e+07
 10
200.78
 20
-11.3048
 30
0
 10
203.212
 20
-25.0921
 30
0
  0
SPLINE
  5
A96
330
A02
100
AcDbEntity
  8
Shape2DView
100
AcDbSpline
210
0
220
0
230
1
 70
8
 71
1
 72
4
 73
2
 74
0
 40
0
 40
0
 40
1.4e+07
 40
1.4e+07
 10
203.212
 20
-25.0921
 30
0
 10
189.424
 20
-27.5232
 30
0
  0
SPLINE
  5
A97
330
A02
100
AcDbEntity
  8
Shape2DView
100
AcDbSpline
210
0
220
0
230
1
 70
8
 71
1
 72
4
 73
2
 74
0
 40
0
 40
0
 40
1.4e+07
 40
1.4e+07
 10
189.424
 20
-27.5232
 30
0
 10
186.993
 20
-13.7358
 30
0
  0
SPLINE
  5
A98
330
A02
100
AcDbEntity
  8
Shape2DView
100
AcDbSpline
210
0
220
0
230
1
 70
8
 71
1
 72
4
 73
2
 74
0
 40
0
 40
0
 40
1.4e+07
 40
1.4e+07
 10
206.581
 20
-15.118
 30
0
 10
220.368
 20
-12.6869
 30
0
  0
SPLINE
  5
A99
330
A02
100
AcDbEntity
  8
Shape2DView
100
AcDbSpline
210
0
220
0
230
1
 70
8
 71
1
 72
4
 73
2
 74
0
 40
0
 40
0
 40
1.4e+07
 40
1.4e+07
 10
220.368
 20
-12.6869
 30
0
 10
222.799
 20
-26.4742
 30
0
  0
SPLINE
  5
A9A
330
A02
100
AcDbEntity
  8
Shape2DView
100
AcDbSpline
210
0
220
0
230
1
 70
8
 71
1
 72
4
 73
2
 74
0
 40
0
 40
0
 40
1.4e+07
 40
1.4e+07
 10
222.799
 20
-26.4742
 30
0
 10
209.012
 20
-28.9053
 30
0
  0
SPLINE
  5
A9B
330
A02
100
AcDbEntity
  8
Shape2DView
100
AcDbSpline
210
0
220
0
230
1
 70
8
 71
1
 72
4
 73
2
 74
0
 40
0
 40
0
 40
1.4e+07
 40
1.4e+07
 10
209.012
 20
-28.9053
 30
0
 10
206.581
 20
-15.118
 30
0
  0
SPLINE
  5
A9C
330
A02
100
AcDbEntity
  8
Shape2DView
100
AcDbSpline
210
0
220
0
230
1
 70
8
 71
1
 72
4
 73
2
 74
0
 40
0
 40
0
 40
1.4e+07
 40
1.4e+07
 10
37.0464
 20
-14.0163
 30
0
 10
50.8337
 20
-16.4474
 30
0
  0
SPLINE
  5
A9D
330
A02
100
AcDbEntity
  8
Shape2DView
100
AcDbSpline
210
0
220
0
230
1
 70
8
 71
1
 72
4
 73
2
 74
0
 40
0
 40
0
 40
1.4e+07
 40
1.4e+07
 10
50.8337
 20
-16.4474
 30
0
 10
48.4026
 20
-30.2347
 30
0
  0
SPLINE
  5
A9E
330
A02
100
AcDbEntity
  8
Shape2DView
100
AcDbSpline
210
0
220
0
230
1
 70
8
 71
1
 72
4
 73
2
 74
0
 40
0
 40
0
 40
1.4e+07
 40
1.4e+07
 10
48.4026
 20
-30.2347
 30
0
 10
34.6153
 20
-27.8036
 30
0
  0
SPLINE
  5
A9F
330
A02
100
AcDbEntity
  8
Shape2DView
100
AcDbSpline
210
0
220
0
230
1
 70
8
 71
1
 72
4
 73
2
 74
0
 40
0
 40
0
 40
1.4e+07
 40
1.4e+07
 10
34.6153
 20
-27.8036
 30
0
 10
37.0464
 20
-14.0163
 30
0
  0
SPLINE
  5
AA0
330
A02
100
AcDbEntity
  8
Shape2DView
100
AcDbSpline
210
0
220
0
230
1
 70
8
 71
1
 72
4
 73
2
 74
0
 40
0
 40
0
 40
1.4e+07
 40
1.4e+07
 10
56.6339
 20
-12.6341
 30
0
 10
70.4213
 20
-15.0652
 30
0
  0
SPLINE
  5
AA1
330
A02
100
AcDbEntity
  8
Shape2DView
100
AcDbSpline
210
0
220
0
230
1
 70
8
 71
1
 72
4
 73
2
 74
0
 40
0
 40
0
 40
1.4e+07
 40
1.4e+07
 10
70.4213
 20
-15.0652
 30
0
 10
67.9902
 20
-28.8525
 30
0
  0
SPLINE
  5
AA2
330
A02
100
AcDbEntity
  8
Shape2DView
100
AcDbSpline
210
0
220
0
230
1
 70
8
 71
1
 72
4
 73
2
 74
0
 40
0
 40
0
 40
1.4e+07
 40
1.4e+07
 10
67.9902
 20
-28.8525
 30
0
 10
54.2029
 20
-26.4215
 30
0
  0
SPLINE
  5
AA3
330
A02
100
AcDbEntity
  8
Shape2DView
100
AcDbSpline
210
0
220
0
230
1
 70
8
 71
1
 72
4
 73
2
 74
0
 40
0
 40
0
 40
1.4e+07
 40
1.4e+07
 10
54.2029
 20
-26.4215
 30
0
 10
56.6339
 20
-12.6341
 30
0
  0
SPLINE
  5
AA4
330
A02
100
AcDbEntity
  8
Shape2DView
100
AcDbSpline
210
0
220
0
230
1
 70
8
 71
1
 72
4
 73
2
 74
0
 40
0
 40
0
 40
1.4e+07
 40
1.4e+07
 10
232.784
 20
-54.0213
 30
0
 10
246.572
 20
-51.5902
 30
0
  0
SPLINE
  5
AA5
330
A02
100
AcDbEntity
  8
Shape2DView
100
AcDbSpline
210
0
220
0
230
1
 70
8
 71
1
 72
4
 73
2
 74
0
 40
0
 40
0
 40
1.4e+07
 40
1.4e+07
 10
246.572
 20
-51.5902
 30
0
 10
249.003
 20
-65.3776
 30
0
  0
SPLINE
  5
AA6
330
A02
100
AcDbEntity
  8
Shape2DView
100
AcDbSpline
210
0
220
0
230
1
 70
8
 71
1
 72
4
 73
2
 74
0
 40
0
 40
0
 40
1.4e+07
 40
1.4e+07
 10
249.003
 20
-65.3776
 30
0
 10
235.215
 20
-67.8086
 30
0
  0
SPLINE
  5
AA7
330
A02
100
AcDbEntity
  8
Shape2DView
100
AcDbSpline
210
0
220
0
230
1
 70
8
 71
1
 72
4
 73
2
 74
0
 40
0
 40
0
 40
1.4e+07
 40
1.4e+07
 10
235.215
 20
-67.8086
 30
0
 10
232.784
 20
-54.0213
 30
0
  0
SPLINE
  5
AA8
330
A02
100
AcDbEntity
  8
Shape2DView
100
AcDbSpline
210
0
220
0
230
1
 70
8
 71
1
 72
4
 73
2
 74
0
 40
0
 40
0
 40
1.4e+07
 40
1.4e+07
 10
90.8471
 20
-38.0107
 30
0
 10
104.634
 20
-40.4418
 30
0
  0
SPLINE
  5
AA9
330
A02
100
AcDbEntity
  8
Shape2DView
100
AcDbSpline
210
0
220
0
230
1
 70
8
 71
1
 72
4
 73
2
 74
0
 40
0
 40
0
 40
1.4e+07
 40
1.4e+07
 10
104.634
 20
-40.4418
 30
0
 10
102.203
 20
-54.2291
 30
0
  0
SPLINE
  5
AAA
330
A02
100
AcDbEntity
  8
Shape2DView
100
AcDbSpline
210
0
220
0
230
1
 70
8
 71
1
 72
4
 73
2
 74
0
 40
0
 40
0
 40
1.4e+07
 40
1.4e+07
 10
102.203
 20
-54.2291
 30
0
 10
88.416
 20
-51.798
 30
0
  0
SPLINE
  5
AAB
330
A02
100
AcDbEntity
  8
Shape2DView
100
AcDbSpline
210
0
220
0
230
1
 70
8
 71
1
 72
4
 73
2
 74
0
 40
0
 40
0
 40
1.4e+07
 40
1.4e+07
 10
88.416
 20
-51.798
 30
0
 10
90.8471
 20
-38.0107
 30
0
  0
SPLINE
  5
AAC
330
A02
100
AcDbEntity
  8
Shape2DView
100
AcDbSpline
210
0
220
0
230
1
 70
8
 71
1
 72
4
 73
2
 74
0
 40
0
 40
0
 40
1.4e+07
 40
1.4e+07
 10
175.676
 20
-59.2552
 30
0
 10
189.463
 20
-56.8241
 30
0
  0
SPLINE
  5
AAD
330
A02
100
AcDbEntity
  8
Shape2DView
100
AcDbSpline
210
0
220
0
230
1
 70
8
 71
1
 72
4
 73
2
 74
0
 40
0
 40
0
 40
1.4e+07
 40
1.4e+07
 10
189.463
 20
-56.8241
 30
0
 10
191.894
 20
-70.6114
 30
0
  0
SPLINE
  5
AAE
330
A02
100
AcDbEntity
  8
Shape2DView
100
AcDbSpline
210
0
220
0
230
1
 70
8
 71
1
 72
4
 73
2
 74
0
 40
0
 40
0
 40
1.4e+07
 40
1.4e+07
 10
191.894
 20
-70.6114
 30
0
 10
178.107
 20
-73.0425
 30
0
  0
SPLINE
  5
AAF
330
A02
100
AcDbEntity
  8
Shape2DView
100
AcDbSpline
210
0
220
0
230
1
 70
8
 71
1
 72
4
 73
2
 74
0
 40
0
 40
0
 40
1.4e+07
 40
1.4e+07
 10
178.107
 20
-73.0425
 30
0
 10
175.676
 20
-59.2552
 30
0
  0
SPLINE
  5
AB0
330
A02
100
AcDbEntity
  8
Shape2DView
100
AcDbSpline
210
0
220
0
230
1
 70
8
 71
1
 72
4
 73
2
 74
0
 40
0
 40
0
 40
1.4e+07
 40
1.4e+07
 10
193.609
 20
-51.257
 30
0
 10
207.396
 20
-48.8259
 30
0
  0
SPLINE
  5
AB1
330
A02
100
AcDbEntity
  8
Shape2DView
100
AcDbSpline
210
0
220
0
230
1
 70
8
 71
1
 72
4
 73
2
 74
0
 40
0
 40
0
 40
1.4e+07
 40
1.4e+07
 10
207.396
 20
-48.8259
 30
0
 10
209.828
 20
-62.6133
 30
0
  0
SPLINE
  5
AB2
330
A02
100
AcDbEntity
  8
Shape2DView
100
AcDbSpline
210
0
220
0
230
1
 70
8
 71
1
 72
4
 73
2
 74
0
 40
0
 40
0
 40
1.4e+07
 40
1.4e+07
 10
209.828
 20
-62.6133
 30
0
 10
196.04
 20
-65.0443
 30
0
  0
SPLINE
  5
AB3
330
A02
100
AcDbEntity
  8
Shape2DView
100
AcDbSpline
210
0
220
0
230
1
 70
8
 71
1
 72
4
 73
2
 74
0
 40
0
 40
0
 40
1.4e+07
 40
1.4e+07
 10
196.04
 20
-65.0443
 30
0
 10
193.609
 20
-51.257
 30
0
  0
SPLINE
  5
AB4
330
A02
100
AcDbEntity
  8
Shape2DView
100
AcDbSpline
210
0
220
0
230
1
 70
8
 71
1
 72
4
 73
2
 74
0
 40
0
 40
0
 40
1.4e+07
 40
1.4e+07
 10
94.1551
 20
-19.2501
 30
0
 10
107.942
 20
-21.6812
 30
0
  0
SPLINE
  5
AB5
330
A02
100
AcDbEntity
  8
Shape2DView
100
AcDbSpline
210
0
220
0
230
1
 70
8
 71
1
 72
4
 73
2
 74
0
 40
0
 40
0
 40
1.4e+07
 40
1.4e+07
 10
107.942
 20
-21.6812
 30
0
 10
105.511
 20
-35.4685
 30
0
  0
SPLINE
  5
AB6
330
A02
100
AcDbEntity
  8
Shape2DView
100
AcDbSpline
210
0
220
0
230
1
 70
8
 71
1
 72
4
 73
2
 74
0
 40
0
 40
0
 40
1.4e+07
 40
1.4e+07
 10
105.511
 20
-35.4685
 30
0
 10
91.724
 20
-33.0374
 30
0
  0
SPLINE
  5
AB7
330
A02
100
AcDbEntity
  8
Shape2DView
100
AcDbSpline
210
0
220
0
230
1
 70
8
 71
1
 72
4
 73
2
 74
0
 40
0
 40
0
 40
1.4e+07
 40
1.4e+07
 10
91.724
 20
-33.0374
 30
0
 10
94.1551
 20
-19.2501
 30
0
  0
SPLINE
  5
AB8
330
A02
100
AcDbEntity
  8
Shape2DView
100
AcDbSpline
210
0
220
0
230
1
 70
8
 71
1
 72
4
 73
2
 74
0
 40
0
 40
0
 40
1.4e+07
 40
1.4e+07
 10
53.3259
 20
-31.3947
 30
0
 10
67.1133
 20
-33.8258
 30
0
  0
SPLINE
  5
AB9
330
A02
100
AcDbEntity
  8
Shape2DView
100
AcDbSpline
210
0
220
0
230
1
 70
8
 71
1
 72
4
 73
2
 74
0
 40
0
 40
0
 40
1.4e+07
 40
1.4e+07
 10
67.1133
 20
-33.8258
 30
0
 10
64.6822
 20
-47.6131
 30
0
  0
SPLINE
  5
ABA
330
A02
100
AcDbEntity
  8
Shape2DView
100
AcDbSpline
210
0
220
0
230
1
 70
8
 71
1
 72
4
 73
2
 74
0
 40
0
 40
0
 40
1.4e+07
 40
1.4e+07
 10
64.6822
 20
-47.6131
 30
0
 10
50.8949
 20
-45.182
 30
0
  0
SPLINE
  5
ABB
330
A02
100
AcDbEntity
  8
Shape2DView
100
AcDbSpline
210
0
220
0
230
1
 70
8
 71
1
 72
4
 73
2
 74
0
 40
0
 40
0
 40
1.4e+07
 40
1.4e+07
 10
50.8949
 20
-45.182
 30
0
 10
53.3259
 20
-31.3947
 30
0
  0
SPLINE
  5
ABC
330
A02
100
AcDbEntity
  8
Shape2DView
100
AcDbSpline
210
0
220
0
230
1
 70
8
 71
1
 72
4
 73
2
 74
0
 40
0
 40
0
 40
1.4e+07
 40
1.4e+07
 10
229.476
 20
-35.2607
 30
0
 10
243.264
 20
-32.8297
 30
0
  0
SPLINE
  5
ABD
330
A02
100
AcDbEntity
  8
Shape2DView
100
AcDbSpline
210
0
220
0
230
1
 70
8
 71
1
 72
4
 73
2
 74
0
 40
0
 40
0
 40
1.4e+07
 40
1.4e+07
 10
243.264
 20
-32.8297
 30
0
 10
245.695
 20
-46.617
 30
0
  0
SPLINE
  5
ABE
330
A02
100
AcDbEntity
  8
Shape2DView
100
AcDbSpline
210
0
220
0
230
1
 70
8
 71
1
 72
4
 73
2
 74
0
 40
0
 40
0
 40
1.4e+07
 40
1.4e+07
 10
245.695
 20
-46.617
 30
0
 10
231.907
 20
-49.048
 30
0
  0
SPLINE
  5
ABF
330
A02
100
AcDbEntity
  8
Shape2DView
100
AcDbSpline
210
0
220
0
230
1
 70
8
 71
1
 72
4
 73
2
 74
0
 40
0
 40
0
 40
1.4e+07
 40
1.4e+07
 10
231.907
 20
-49.048
 30
0
 10
229.476
 20
-35.2607
 30
0
  0
SPLINE
  5
AC0
330
A02
100
AcDbEntity
  8
Shape2DView
100
AcDbSpline
210
0
220
0
230
1
 70
8
 71
1
 72
4
 73
2
 74
0
 40
0
 40
0
 40
1.4e+07
 40
1.4e+07
 10
30.4304
 20
-51.5375
 30
0
 10
44.2177
 20
-53.9685
 30
0
  0
SPLINE
  5
AC1
330
A02
100
AcDbEntity
  8
Shape2DView
100
AcDbSpline
210
0
220
0
230
1
 70
8
 71
1
 72
4
 73
2
 74
0
 40
0
 40
0
 40
1.4e+07
 40
1.4e+07
 10
44.2177
 20
-53.9685
 30
0
 10
41.7866
 20
-67.7559
 30
0
  0
SPLINE
  5
AC2
330
A02
100
AcDbEntity
  8
Shape2DView
100
AcDbSpline
210
0
220
0
230
1
 70
8
 71
1
 72
4
 73
2
 74
0
 40
0
 40
0
 40
1.4e+07
 40
1.4e+07
 10
41.7866
 20
-67.7559
 30
0
 10
27.9993
 20
-65.3248
 30
0
  0
SPLINE
  5
AC3
330
A02
100
AcDbEntity
  8
Shape2DView
100
AcDbSpline
210
0
220
0
230
1
 70
8
 71
1
 72
4
 73
2
 74
0
 40
0
 40
0
 40
1.4e+07
 40
1.4e+07
 10
27.9993
 20
-65.3248
 30
0
 10
30.4304
 20
-51.5375
 30
0
  0
SPLINE
  5
AC4
330
A02
100
AcDbEntity
  8
Shape2DView
100
AcDbSpline
210
0
220
0
230
1
 70
8
 71
1
 72
4
 73
2
 74
0
 40
0
 40
0
 40
1.4e+07
 40
1.4e+07
 10
76.2215
 20
-11.252
 30
0
 10
90.0088
 20
-13.6831
 30
0
  0
SPLINE
  5
AC5
330
A02
100
AcDbEntity
  8
Shape2DView
100
AcDbSpline
210
0
220
0
230
1
 70
8
 71
1
 72
4
 73
2
 74
0
 40
0
 40
0
 40
1.4e+07
 40
1.4e+07
 10
90.0088
 20
-13.6831
 30
0
 10
87.5778
 20
-27.4704
 30
0
  0
SPLINE
  5
AC6
330
A02
100
AcDbEntity
  8
Shape2DView
100
AcDbSpline
210
0
220
0
230
1
 70
8
 71
1
 72
4
 73
2
 74
0
 40
0
 40
0
 40
1.4e+07
 40
1.4e+07
 10
87.5778
 20
-27.4704
 30
0
 10
73.7905
 20
-25.0393
 30
0
  0
SPLINE
  5
AC7
330
A02
100
AcDbEntity
  8
Shape2DView
100
AcDbSpline
210
0
220
0
230
1
 70
8
 71
1
 72
4
 73
2
 74
0
 40
0
 40
0
 40
1.4e+07
 40
1.4e+07
 10
73.7905
 20
-25.0393
 30
0
 10
76.2215
 20
-11.252
 30
0
  0
SPLINE
  5
AC8
330
A02
100
AcDbEntity
  8
Shape2DView
100
AcDbSpline
210
0
220
0
230
1
 70
8
 71
1
 72
4
 73
2
 74
0
 40
0
 40
0
 40
1.4e+07
 40
1.4e+07
 10
108.781
 20
-46.0089
 30
0
 10
122.568
 20
-48.4399
 30
0
  0
SPLINE
  5
AC9
330
A02
100
AcDbEntity
  8
Shape2DView
100
AcDbSpline
210
0
220
0
230
1
 70
8
 71
1
 72
4
 73
2
 74
0
 40
0
 40
0
 40
1.4e+07
 40
1.4e+07
 10
122.568
 20
-48.4399
 30
0
 10
120.137
 20
-62.2273
 30
0
  0
SPLINE
  5
ACA
330
A02
100
AcDbEntity
  8
Shape2DView
100
AcDbSpline
210
0
220
0
230
1
 70
8
 71
1
 72
4
 73
2
 74
0
 40
0
 40
0
 40
1.4e+07
 40
1.4e+07
 10
120.137
 20
-62.2273
 30
0
 10
106.35
 20
-59.7962
 30
0
  0
SPLINE
  5
ACB
330
A02
100
AcDbEntity
  8
Shape2DView
100
AcDbSpline
210
0
220
0
230
1
 70
8
 71
1
 72
4
 73
2
 74
0
 40
0
 40
0
 40
1.4e+07
 40
1.4e+07
 10
106.35
 20
-59.7962
 30
0
 10
108.781
 20
-46.0089
 30
0
  0
ENDSEC
  0
SECTION
  2
OBJECTS
  0
DICTIONARY
  5
F000
330
0
100
AcDbDictionary
  3
ACAD_GROUP
350
F001
  0
DICTIONARY
  5
F001
330
F000
100
AcDbDictionary
  0
ENDSEC
  0
EOF