999
FreeCAD v0.19 24366 (Git)
  0
SECTION
  2
HEADER
  9
$ACADVER
  1
AC1014
  9
$ACADMAINTVER
 70
     9
  9
$DWGCODEPAGE
  3
ANSI_1252
  9
$TEXTSTYLE
  7
STANDARD
  9
$DIMSTYLE
  2
STANDARD
  9
$DIMTXSTY
  7
STANDARD
  9
$CMLSTYLE
  2
STANDARD
  9
$PEXTMAX
 10
50
 20
50
 30
50
  9
$PEXTMIN
 10
0
 20
0
 30
0
  9
$HANDSEED
  5
FFFF
  0
ENDSEC
  0
SECTION
  2
CLASSES
  0
CLASS
  1
ACDBDICTIONARYWDFLT
  2
AcDbDictionaryWithDefault
  3
ObjectDBX Classes
 90
        0
280
     0
281
     0
  0
CLASS
  1
XRECORD
  2
AcDbXrecord
  3
ObjectDBX Classes
 90
        0
280
     0
281
     0
  0
CLASS
  1
LWPOLYLINE
  2
AcDbPolyline
  3
ObjectDBX Classes
 90
        0
280
     0
281
     1
  0
ENDSEC
  0
SECTION
  2
TABLES
  0
TABLE
  2
VPORT
  5
20
330
0
100
AcDbSymbolTable
 70
     1
  0
VPORT
  5
21
330
20
100
AcDbSymbolTableRecord
100
AcDbViewportTableRecord
  2
*ACTIVE
 70
     0
  0
ENDTAB
  0
TABLE
  2
LTYPE
  5
22
330
0
100
AcDbSymbolTable
 70
     1
  0
LTYPE
  5
23
330
21
100
AcDbSymbolTableRecord
100
AcDbLinetypeTableRecord
  2
BYBLOCK
 70
     0
  3

 72
    65
 73
     0
 40
0.0
  0
LTYPE
  5
24
330
21
100
AcDbSymbolTableRecord
100
AcDbLinetypeTableRecord
  2
BYLAYER
 70
     0
  3

 72
    65
 73
     0
 40
0.0
  0
LTYPE
  5
25
330
21
100
AcDbSymbolTableRecord
100
AcDbLinetypeTableRecord
  2
CONTINUOUS
 70
     0
  3
Solid line
 72
    65
 73
     0
 40
0.0
  0
ENDTAB
  0
TABLE
  2
LAYER
  5
A57
330
0
100
AcDbSymbolTable
 70
6
  0
LAYER
  5
A58
330
A57
100
AcDbSymbolTableRecord
100
AcDbLayerTableRecord
  2
0
 70
   0
 62
   7
  6
CONTINUOUS
  0
LAYER
  5
A59
330
A57
100
AcDbSymbolTableRecord
100
AcDbLayerTableRecord
  2
none
 70
    0
 62
    7
  6
CONTINUOUS
  0
LAYER
  5
A5A
330
A57
100
AcDbSymbolTableRecord
100
AcDbLayerTableRecord
  2
Sketch021
 70
    0
 62
    7
  6
CONTINUOUS
  0
LAYER
  5
A5B
330
A57
100
AcDbSymbolTableRecord
100
AcDbLayerTableRecord
  2
Sketch023
 70
    0
 62
    7
  6
CONTINUOUS
  0
LAYER
  5
A5C
330
A57
100
AcDbSymbolTableRecord
100
AcDbLayerTableRecord
  2
Sketch020
 70
    0
 62
    7
  6
CONTINUOUS
  0
LAYER
  5
A5D
330
A57
100
AcDbSymbolTableRecord
100
AcDbLayerTableRecord
  2
Sketch028
 70
    0
 62
    7
  6
CONTINUOUS
  0
ENDTAB
  0
TABLE
  2
STYLE
  5
70
330
0
100
AcDbSymbolTable
 70
     2
  0
STYLE
  5
71
330
70
100
AcDbSymbolTableRecord
100
AcDbTextStyleTableRecord
  2
STANDARD
 70
     0
 40
0.0
 41
1.0
 50
0.0
 71
     0
 42
2.5
  3
arial.ttf
  4

  0
STYLE
  5
72
330
70
100
AcDbSymbolTableRecord
100
AcDbTextStyleTableRecord
  2
ANNOTATIVE
 70
     0
 40
0.0
 41
1.0
 50
0.0
 71
     0
 42
2.5
  3
arial.ttf
  4

  0
ENDTAB
  0
TABLE
  2
VIEW
  5
73
330
0
100
AcDbSymbolTable
 70
     0
  0
ENDTAB
  0
TABLE
  2
UCS
  5
74
330
0
100
AcDbSymbolTable
 70
     0
  0
ENDTAB
  0
TABLE
  2
APPID
  5
75
330
0
100
AcDbSymbolTable
 70
     2
  0
APPID
  5
76
330
75
100
AcDbSymbolTableRecord
100
AcDbRegAppTableRecord
  2
ACAD
 70
     0
  0
APPID
  5
77
330
75
100
AcDbSymbolTableRecord
100
AcDbRegAppTableRecord
  2
ACADANNOTATIVE
 70
     0
  0
ENDTAB
  0
TABLE
  2
DIMSTYLE
  5
78
330
0
100
AcDbSymbolTable
 70
     2
  0
DIMSTYLE
105
79
330
78
100
AcDbSymbolTableRecord
100
AcDbDimStyleTableRecord
  2
STANDARD
 70
     0
  3

  4

  5

  6

  7

 40
0.0
 41
2.5
 42
0.625
 43
3.75
 44
1.25
 45
0.0
 46
0.0
 47
0.0
 48
0.0
140
2.5
141
2.5
142
0.0
143
0.03937007874016
144
1.0
145
0.0
146
1.0
147
0.625
 71
     0
 72
     0
 73
     0
 74
     0
 75
     0
 76
     0
 77
     1
 78
     8
170
     0
171
     3
172
     1
173
     0
174
     0
175
     0
176
     0
177
     0
178
     0
270
     2
271
     2
272
     2
273
     2
274
     3
340
71
275
     0
280
     0
281
     0
282
     0
283
     0
284
     8
285
     0
286
     0
287
     3
288
     0
  0
ENDTAB
  0
TABLE
  2
BLOCK_RECORD
  5
A01
330
0
100
AcDbSymbolTable
  70
5
  0
BLOCK_RECORD
  5
A02
330
A01
100
AcDbSymbolTableRecord
100
AcDbBlockTableRecord
  2
*MODEL_SPACE
  0
BLOCK_RECORD
  5
A03
330
A01
100
AcDbSymbolTableRecord
100
AcDbBlockTableRecord
  2
*PAPER_SPACE
  0
ENDTAB
  0
ENDSEC
  0
SECTION
  2
BLOCKS
  0
BLOCK
  5
A04
330
A02
100
AcDbEntity
  8
0
100
AcDbBlockBegin
  2
*MODEL_SPACE
 70
   0
 10
0
 20
0
 30
0
  3
*MODEL_SPACE
  1
 
  0
ENDBLK
  5
A05
330
A02
100
AcDbEntity
  8
0
100
AcDbBlockEnd
  0
BLOCK
  5
A06
330
A03
100
AcDbEntity
 67
1
  8
0
100
AcDbBlockBegin
  2
*PAPER_SPACE
 70
   0
 10
0
 20
0
 30
0
  3
*PAPER_SPACE
  1
 
  0
ENDBLK
  5
A07
330
A03
100
AcDbEntity
 67
    1
  8
0
100
AcDbBlockEnd
  0
ENDSEC
  0
SECTION
  2
ENTITIES
  0
ARC
  5
A08
330
A02
100
AcDbEntity
  8
Sketch021
100
AcDbCircle
 10
243.665
 20
-446.556
 30
0
 40
445.11
100
AcDbArc
 50
87.856
 51
102.872
  0
LINE
  5
A09
330
A02
100
AcDbEntity
  8
Sketch021
100
AcDbLine
 10
260.317
 20
-1.75788
 30
0
 11
270.31
 21
-2.13199
 31
0
  0
ARC
  5
A0A
330
A02
100
AcDbEntity
  8
Sketch021
100
AcDbCircle
 10
270.161
 20
-6.12919
 30
0
 40
4
100
AcDbArc
 50
10
 51
87.856
  0
LINE
  5
A0B
330
A02
100
AcDbEntity
  8
Sketch021
100
AcDbLine
 10
274.1
 20
-5.4346
 30
0
 11
288.027
 21
-84.4161
 31
0
  0
ARC
  5
A0C
330
A02
100
AcDbEntity
  8
Sketch021
100
AcDbCircle
 10
284.087
 20
-85.1107
 30
0
 40
4
100
AcDbArc
 50
-80
 51
10
  0
LINE
  5
A0D
330
A02
100
AcDbEntity
  8
Sketch021
100
AcDbLine
 10
145.455
 20
-113.617
 30
0
 11
284.782
 21
-89.05
 31
0
  0
ARC
  5
A0E
330
A02
100
AcDbEntity
  8
Sketch021
100
AcDbCircle
 10
138.509
 20
-74.2248
 30
0
 40
40
100
AcDbArc
 50
-100
 51
-80
  0
LINE
  5
A0F
330
A02
100
AcDbEntity
  8
Sketch021
100
AcDbLine
 10
-7.76388
 20
-89.05
 30
0
 11
131.563
 21
-113.617
 31
0
  0
ARC
  5
A10
330
A02
100
AcDbEntity
  8
Sketch021
100
AcDbCircle
 10
-7.06929
 20
-85.1107
 30
0
 40
4
100
AcDbArc
 50
170
 51
-100
  0
LINE
  5
A11
330
A02
100
AcDbEntity
  8
Sketch021
100
AcDbLine
 10
-11.0085
 20
-84.4161
 30
0
 11
2.91806
 21
-5.4346
 31
0
  0
ARC
  5
A12
330
A02
100
AcDbEntity
  8
Sketch021
100
AcDbCircle
 10
6.85729
 20
-6.12919
 30
0
 40
4
100
AcDbArc
 50
92.144
 51
170
  0
LINE
  5
A13
330
A02
100
AcDbEntity
  8
Sketch021
100
AcDbLine
 10
6.70764
 20
-2.13199
 30
0
 11
16.7006
 21
-1.75788
 31
0
  0
ARC
  5
A14
330
A02
100
AcDbEntity
  8
Sketch021
100
AcDbCircle
 10
33.3528
 20
-446.556
 30
0
 40
445.11
100
AcDbArc
 50
77.1284
 51
92.144
  0
CIRCLE
  5
A15
330
A02
100
AcDbEntity
  8
Sketch023
100
AcDbCircle
 10
102.729
 20
-10.9361
 40
1.75
  0
CIRCLE
  5
A16
330
A02
100
AcDbEntity
  8
Sketch023
100
AcDbCircle
 10
174.289
 20
-10.9361
 40
1.75
  0
CIRCLE
  5
A17
330
A02
100
AcDbEntity
  8
Sketch023
100
AcDbCircle
 10
138.509
 20
-110.225
 40
1.75
  0
CIRCLE
  5
A18
330
A02
100
AcDbEntity
  8
Sketch023
100
AcDbCircle
 10
29.8988
 20
-5.4598
 40
1.75
  0
CIRCLE
  5
A19
330
A02
100
AcDbEntity
  8
Sketch023
100
AcDbCircle
 10
247.119
 20
-5.4598
 40
1.75
  0
CIRCLE
  5
A1A
330
A02
100
AcDbEntity
  8
Sketch023
100
AcDbCircle
 10
211.298
 20
-97.6677
 40
1.75
  0
CIRCLE
  5
A1B
330
A02
100
AcDbEntity
  8
Sketch023
100
AcDbCircle
 10
284.087
 20
-85.1107
 40
1.75
  0
CIRCLE
  5
A1C
330
A02
100
AcDbEntity
  8
Sketch023
100
AcDbCircle
 10
65.7199
 20
-97.6677
 40
1.75
  0
CIRCLE
  5
A1D
330
A02
100
AcDbEntity
  8
Sketch023
100
AcDbCircle
 10
-7.06929
 20
-85.1107
 40
1.75
  0
LINE
  5
A1E
330
A02
100
AcDbEntity
  8
Sketch020
100
AcDbLine
 10
128.801
 20
-27.6312
 30
0
 11
110.041
 21
-24.3232
 31
0
  0
LINE
  5
A1F
330
A02
100
AcDbEntity
  8
Sketch020
100
AcDbLine
 10
110.041
 20
-24.3232
 30
0
 11
110.868
 21
-19.633
 31
0
  0
LINE
  5
A20
330
A02
100
AcDbEntity
  8
Sketch020
100
AcDbLine
 10
110.868
 20
-19.633
 30
0
 11
92.1069
 21
-16.325
 31
0
  0
LINE
  5
A21
330
A02
100
AcDbEntity
  8
Sketch020
100
AcDbLine
 10
92.1069
 20
-16.325
 30
0
 11
92.9339
 21
-11.6349
 31
0
  0
LINE
  5
A22
330
A02
100
AcDbEntity
  8
Sketch020
100
AcDbLine
 10
92.9339
 20
-11.6349
 30
0
 11
74.1733
 21
-8.32689
 31
0
  0
LINE
  5
A23
330
A02
100
AcDbEntity
  8
Sketch020
100
AcDbLine
 10
74.1733
 20
-8.32689
 30
0
 11
73.3464
 21
-13.017
 31
0
  0
LINE
  5
A24
330
A02
100
AcDbEntity
  8
Sketch020
100
AcDbLine
 10
73.3464
 20
-13.017
 30
0
 11
54.5858
 21
-9.70904
 31
0
  0
LINE
  5
A25
330
A02
100
AcDbEntity
  8
Sketch020
100
AcDbLine
 10
54.5858
 20
-9.70904
 30
0
 11
53.7588
 21
-14.3992
 31
0
  0
LINE
  5
A26
330
A02
100
AcDbEntity
  8
Sketch020
100
AcDbLine
 10
53.7588
 20
-14.3992
 30
0
 11
6.85729
 21
-6.12919
 31
0
  0
LINE
  5
A27
330
A02
100
AcDbEntity
  8
Sketch020
100
AcDbLine
 10
6.85729
 20
-6.12919
 30
0
 11
-6.3747
 21
-81.1715
 31
0
  0
LINE
  5
A28
330
A02
100
AcDbEntity
  8
Sketch020
100
AcDbLine
 10
-6.3747
 20
-81.1715
 30
0
 11
40.5268
 21
-89.4415
 31
0
  0
LINE
  5
A29
330
A02
100
AcDbEntity
  8
Sketch020
100
AcDbLine
 10
40.5268
 20
-89.4415
 30
0
 11
44.6618
 21
-65.9908
 31
0
  0
LINE
  5
A2A
330
A02
100
AcDbEntity
  8
Sketch020
100
AcDbLine
 10
44.6618
 20
-65.9908
 30
0
 11
63.4224
 21
-69.2988
 31
0
  0
LINE
  5
A2B
330
A02
100
AcDbEntity
  8
Sketch020
100
AcDbLine
 10
63.4224
 20
-69.2988
 30
0
 11
64.2494
 21
-64.6087
 31
0
  0
LINE
  5
A2C
330
A02
100
AcDbEntity
  8
Sketch020
100
AcDbLine
 10
64.2494
 20
-64.6087
 30
0
 11
83.0099
 21
-67.9167
 31
0
  0
LINE
  5
A2D
330
A02
100
AcDbEntity
  8
Sketch020
100
AcDbLine
 10
83.0099
 20
-67.9167
 30
0
 11
82.1829
 21
-72.6068
 31
0
  0
LINE
  5
A2E
330
A02
100
AcDbEntity
  8
Sketch020
100
AcDbLine
 10
82.1829
 20
-72.6068
 30
0
 11
100.944
 21
-75.9148
 31
0
  0
LINE
  5
A2F
330
A02
100
AcDbEntity
  8
Sketch020
100
AcDbLine
 10
100.944
 20
-75.9148
 30
0
 11
100.117
 21
-80.6049
 31
0
  0
LINE
  5
A30
330
A02
100
AcDbEntity
  8
Sketch020
100
AcDbLine
 10
100.117
 20
-80.6049
 30
0
 11
62.5834
 21
-73.906
 31
0
  0
LINE
  5
A31
330
A02
100
AcDbEntity
  8
Sketch020
100
AcDbLine
 10
62.5834
 20
-73.906
 30
0
 11
59.2755
 21
-92.6665
 31
0
  0
LINE
  5
A32
330
A02
100
AcDbEntity
  8
Sketch020
100
AcDbLine
 10
59.2755
 20
-92.6665
 30
0
 11
115.555
 21
-102.608
 31
0
  0
LINE
  5
A33
330
A02
100
AcDbEntity
  8
Sketch020
100
AcDbLine
 10
128.801
 20
-27.6312
 30
0
 11
115.555
 21
-102.608
 31
0
  0
LINE
  5
A34
330
A02
100
AcDbEntity
  8
Sketch020
100
AcDbLine
 10
126.001
 20
-84
 30
0
 11
126.001
 21
-103.05
 31
0
  0
LINE
  5
A35
330
A02
100
AcDbEntity
  8
Sketch020
100
AcDbLine
 10
126.001
 20
-84
 30
0
 11
151.001
 21
-84
 31
0
  0
LINE
  5
A36
330
A02
100
AcDbEntity
  8
Sketch020
100
AcDbLine
 10
151.001
 20
-84
 30
0
 11
151.001
 21
-103.05
 31
0
  0
LINE
  5
A37
330
A02
100
AcDbEntity
  8
Sketch020
100
AcDbLine
 10
126.001
 20
-103.05
 30
0
 11
151.001
 21
-103.05
 31
0
  0
LINE
  5
A38
330
A02
100
AcDbEntity
  8
Sketch020
100
AcDbLine
 10
193.992
 20
-67.9694
 30
0
 11
212.753
 21
-64.6614
 31
0
  0
LINE
  5
A39
330
A02
100
AcDbEntity
  8
Sketch020
100
AcDbLine
 10
212.753
 20
-64.6614
 30
0
 11
213.58
 21
-69.3516
 31
0
  0
LINE
  5
A3A
330
A02
100
AcDbEntity
  8
Sketch020
100
AcDbLine
 10
213.58
 20
-69.3516
 30
0
 11
232.34
 21
-66.0436
 31
0
  0
LINE
  5
A3B
330
A02
100
AcDbEntity
  8
Sketch020
100
AcDbLine
 10
232.34
 20
-66.0436
 30
0
 11
236.475
 21
-89.4943
 31
0
  0
LINE
  5
A3C
330
A02
100
AcDbEntity
  8
Sketch020
100
AcDbLine
 10
283.377
 20
-81.2243
 30
0
 11
236.475
 21
-89.4943
 31
0
  0
LINE
  5
A3D
330
A02
100
AcDbEntity
  8
Sketch020
100
AcDbLine
 10
270.145
 20
-6.18197
 30
0
 11
283.377
 21
-81.2243
 31
0
  0
LINE
  5
A3E
330
A02
100
AcDbEntity
  8
Sketch020
100
AcDbLine
 10
223.243
 20
-14.452
 30
0
 11
270.145
 21
-6.18197
 31
0
  0
LINE
  5
A3F
330
A02
100
AcDbEntity
  8
Sketch020
100
AcDbLine
 10
222.416
 20
-9.76182
 30
0
 11
223.243
 21
-14.452
 31
0
  0
LINE
  5
A40
330
A02
100
AcDbEntity
  8
Sketch020
100
AcDbLine
 10
222.416
 20
-9.76182
 30
0
 11
203.656
 21
-13.0698
 31
0
  0
LINE
  5
A41
330
A02
100
AcDbEntity
  8
Sketch020
100
AcDbLine
 10
203.656
 20
-13.0698
 30
0
 11
202.829
 21
-8.37967
 31
0
  0
LINE
  5
A42
330
A02
100
AcDbEntity
  8
Sketch020
100
AcDbLine
 10
202.829
 20
-8.37967
 30
0
 11
184.068
 21
-11.6877
 31
0
  0
LINE
  5
A43
330
A02
100
AcDbEntity
  8
Sketch020
100
AcDbLine
 10
184.068
 20
-11.6877
 30
0
 11
184.895
 21
-16.3778
 31
0
  0
LINE
  5
A44
330
A02
100
AcDbEntity
  8
Sketch020
100
AcDbLine
 10
184.895
 20
-16.3778
 30
0
 11
166.134
 21
-19.6858
 31
0
  0
LINE
  5
A45
330
A02
100
AcDbEntity
  8
Sketch020
100
AcDbLine
 10
166.134
 20
-19.6858
 30
0
 11
166.961
 21
-24.376
 31
0
  0
LINE
  5
A46
330
A02
100
AcDbEntity
  8
Sketch020
100
AcDbLine
 10
166.961
 20
-24.376
 30
0
 11
148.201
 21
-27.684
 31
0
  0
LINE
  5
A47
330
A02
100
AcDbEntity
  8
Sketch020
100
AcDbLine
 10
148.201
 20
-27.684
 30
0
 11
161.447
 21
-102.66
 31
0
  0
LINE
  5
A48
330
A02
100
AcDbEntity
  8
Sketch020
100
AcDbLine
 10
161.447
 20
-102.66
 30
0
 11
217.742
 21
-92.6665
 31
0
  0
LINE
  5
A49
330
A02
100
AcDbEntity
  8
Sketch020
100
AcDbLine
 10
214.434
 20
-73.906
 30
0
 11
217.742
 21
-92.6665
 31
0
  0
LINE
  5
A4A
330
A02
100
AcDbEntity
  8
Sketch020
100
AcDbLine
 10
176.885
 20
-80.6577
 30
0
 11
214.434
 21
-73.906
 31
0
  0
LINE
  5
A4B
330
A02
100
AcDbEntity
  8
Sketch020
100
AcDbLine
 10
176.058
 20
-75.9676
 30
0
 11
176.885
 21
-80.6577
 31
0
  0
LINE
  5
A4C
330
A02
100
AcDbEntity
  8
Sketch020
100
AcDbLine
 10
194.819
 20
-72.6596
 30
0
 11
176.058
 21
-75.9676
 31
0
  0
LINE
  5
A4D
330
A02
100
AcDbEntity
  8
Sketch020
100
AcDbLine
 10
193.992
 20
-67.9694
 30
0
 11
194.819
 21
-72.6596
 31
0
  0
CIRCLE
  5
A4E
330
A02
100
AcDbEntity
  8
Sketch020
100
AcDbCircle
 10
123.302
 20
-23.9644
 40
0.75
  0
LINE
  5
A4F
330
A02
100
AcDbEntity
  8
Sketch020
100
AcDbLine
 10
132.501
 20
-12.6312
 30
0
 11
144.501
 21
-12.6312
 31
0
  0
LINE
  5
A50
330
A02
100
AcDbEntity
  8
Sketch028
100
AcDbLine
 10
131.94
 20
-63.466
 30
0
 11
145.14
 21
-63.466
 31
0
  0
LINE
  5
A51
330
A02
100
AcDbEntity
  8
Sketch028
100
AcDbLine
 10
145.14
 20
-63.466
 30
0
 11
145.14
 21
-77.466
 31
0
  0
LINE
  5
A52
330
A02
100
AcDbEntity
  8
Sketch028
100
AcDbLine
 10
145.14
 20
-77.466
 30
0
 11
131.94
 21
-77.466
 31
0
  0
LINE
  5
A53
330
A02
100
AcDbEntity
  8
Sketch028
100
AcDbLine
 10
131.94
 20
-77.466
 30
0
 11
131.94
 21
-63.466
 31
0
  0
CIRCLE
  5
A54
330
A02
100
AcDbEntity
  8
Sketch028
100
AcDbCircle
 10
138.509
 20
-57.875
 40
2
  0
CIRCLE
  5
A55
330
A02
100
AcDbEntity
  8
Sketch028
100
AcDbCircle
 10
72.8087
 20
-70.925
 40
2
  0
CIRCLE
  5
A56
330
A02
100
AcDbEntity
  8
Sketch028
100
AcDbCircle
 10
204.209
 20
-70.925
 40
2
  0
ENDSEC
  0
SECTION
  2
OBJECTS
  0
DICTIONARY
  5
F000
330
0
100
AcDbDictionary
  3
ACAD_GROUP
350
F001
  0
DICTIONARY
  5
F001
330
F000
100
AcDbDictionary
  0
ENDSEC
  0
EOF