<?xml version="1.0" standalone="no"?>
 <!DOCTYPE svg PUBLIC "-//W3C//DTD SVG 1.1//EN" 
 "http://www.w3.org/Graphics/SVG/1.1/DTD/svg11.dtd"> 
<svg
  xmlns:svg="http://www.w3.org/2000/svg"
  xmlns="http://www.w3.org/2000/svg"
  xmlns:xlink="http://www.w3.org/1999/xlink"
  version="1.1"
  width="27.706320cm" height="10.942320cm" viewBox="0 0 277063200 109423200">
<title>SVG Picture created as doxie-brd.svg date 2022/07/19 12:37:50 </title>
  <desc>Picture generated by PCBNEW </desc>
<g style="fill:#000000; fill-opacity:1.000000;stroke:#000000; stroke-opacity:1.000000;
stroke-linecap:round; stroke-linejoin:round;"
 transform="translate(0 0) scale(1 1)">
</g>
<g style="fill:#000000; fill-opacity:0.0; 
stroke:#000000; stroke-width:0.000000; stroke-opacity:1; 
stroke-linecap:round; stroke-linejoin:round;">
</g>
<g style="fill:#000000; fill-opacity:0.0; 
stroke:#000000; stroke-width:120000.000000; stroke-opacity:1; 
stroke-linecap:round; stroke-linejoin:round;">
<path d="M248236887 31952730
L262024196 29521655
" />
<path d="M262024196 29521655
L264455271 43308964
" />
<path d="M264455271 43308964
L250667962 45740039
" />
<path d="M250667962 45740039
L248236887 31952730
" />
<path d="M28765078 31899956
L14977769 29468881
" />
<path d="M14977769 29468881
L12546694 43256190
" />
<path d="M12546694 43256190
L26334003 45687265
" />
<path d="M26334003 45687265
L28765078 31899956
" />
<path d="M244928889 13192143
L258716198 10761068
" />
<path d="M258716198 10761068
L261147273 24548377
" />
<path d="M261147273 24548377
L247359964 26979452
" />
<path d="M247359964 26979452
L244928889 13192143
" />
<path d="M25457080 50660544
L11669771 48229469
" />
<path d="M11669771 48229469
L9238696 62016778
" />
<path d="M9238696 62016778
L23026005 64447853
" />
<path d="M23026005 64447853
L25457080 50660544
" />
<path d="M251544885 50713318
L265332194 48282243
" />
<path d="M265332194 48282243
L267763269 62069552
" />
<path d="M267763269 62069552
L253975960 64500627
" />
<path d="M253975960 64500627
L251544885 50713318
" />
<path d="M27122361 70298054
L40909670 72729129
" />
<path d="M40909670 72729129
L38478595 86516438
" />
<path d="M38478595 86516438
L24691286 84085363
" />
<path d="M24691286 84085363
L27122361 70298054
" />
<path d="M32073075 13139369
L18285766 10708294
" />
<path d="M18285766 10708294
L15854691 24495603
" />
<path d="M15854691 24495603
L29642000 26926678
" />
<path d="M29642000 26926678
L32073075 13139369
" />
<path d="M22149082 69421132
L8361773 66990057
" />
<path d="M8361773 66990057
L5930698 80777366
" />
<path d="M5930698 80777366
L19718007 83208441
" />
<path d="M19718007 83208441
L22149082 69421132
" />
<path d="M254852882 69473906
L268640191 67042831
" />
<path d="M268640191 67042831
L271071266 80830140
" />
<path d="M271071266 80830140
L257283957 83261215
" />
<path d="M257283957 83261215
L254852882 69473906
" />
<path d="M249879604 70350829
L236092295 72781904
" />
<path d="M236092295 72781904
L238523370 86569213
" />
<path d="M238523370 86569213
L252310679 84138138
" />
<path d="M252310679 84138138
L249879604 70350829
" />
<g >
</g>
<g >
</g>
<g >
</g>
<g >
</g>
<g >
</g>
<g >
</g>
<g >
</g>
<g >
</g>
<g >
</g>
<g >
</g>
<g >
</g>
<g >
</g>
<g >
</g>
<g >
</g>
<g >
</g>
<g >
</g>
<g >
</g>
<g >
</g>
<g >
</g>
<g >
</g>
<g >
</g>
<g >
</g>
<g >
</g>
<g >
</g>
<g >
</g>
<g >
</g>
<g >
</g>
<g >
</g>
<g >
</g>
<g >
</g>
<g >
</g>
<g >
</g>
<g >
</g>
<g >
</g>
<g >
</g>
<g >
</g>
<g >
</g>
<g >
</g>
<g >
</g>
<g >
</g>
<g >
</g>
<g >
</g>
<g >
</g>
<g >
</g>
<g >
</g>
<g >
</g>
<g >
</g>
<g >
</g>
<g >
</g>
<g >
</g>
<g >
</g>
<g >
</g>
<g >
</g>
<g >
</g>
<g >
</g>
<g >
</g>
<g >
</g>
<g >
</g>
<g >
</g>
<g >
</g>
<g >
</g>
<g >
</g>
<g >
</g>
<g >
</g>
<g >
</g>
<g >
</g>
<g >
</g>
<g >
</g>
<g >
</g>
<g >
</g>
<g >
</g>
<g >
</g>
<g >
</g>
<g >
</g>
<g >
</g>
<g >
</g>
<g >
</g>
<g >
</g>
<g >
</g>
<g >
</g>
<g >
</g>
<g >
</g>
<g >
</g>
<g >
</g>
<g >
</g>
<g >
</g>
<g >
</g>
<g >
</g>
<g >
</g>
<g >
</g>
<g >
</g>
<g >
</g>
<g >
</g>
<g >
</g>
<g >
</g>
<g >
</g>
<g >
</g>
<g >
</g>
<g >
</g>
<g >
</g>
<g >
</g>
<g >
</g>
<g >
</g>
<g >
</g>
<g >
</g>
<g >
</g>
<g >
</g>
<g >
</g>
<g >
</g>
<g >
</g>
<g >
</g>
<g >
</g>
<g >
</g>
</g>
<g style="fill:#000000; fill-opacity:0.0; 
stroke:#000000; stroke-width:120000.000000; stroke-opacity:1; 
stroke-linecap:round; stroke-linejoin:round;">
<path d="M102164711 83530046
L115952020 85961121
" />
<path d="M115952020 85961121
L113520945 99748430
" />
<path d="M113520945 99748430
L99733636 97317355
" />
<path d="M99733636 97317355
L102164711 83530046
" />
<path d="M95587357 91750285
L81800048 89319210
" />
<path d="M81800048 89319210
L84231123 75531901
" />
<path d="M84231123 75531901
L98018432 77962976
" />
<path d="M98018432 77962976
L95587357 91750285
" />
<path d="M143116356 94012039
L156903665 91580964
" />
<path d="M156903665 91580964
L159334740 105368273
" />
<path d="M159334740 105368273
L145547431 107799348
" />
<path d="M145547431 107799348
L143116356 94012039
" />
<path d="M120098300 91528190
L133885609 93959265
" />
<path d="M133885609 93959265
L131454534 107746574
" />
<path d="M131454534 107746574
L117667225 105315499
" />
<path d="M117667225 105315499
L120098300 91528190
" />
<path d="M161049944 86013895
L174837253 83582820
" />
<path d="M174837253 83582820
L177268328 97370129
" />
<path d="M177268328 97370129
L163481019 99801204
" />
<path d="M163481019 99801204
L161049944 86013895
" />
<path d="M195201916 89371984
L181414607 91803059
" />
<path d="M181414607 91803059
L178983532 78015750
" />
<path d="M178983532 78015750
L192770841 75584675
" />
<path d="M192770841 75584675
L195201916 89371984
" />
<g >
</g>
<g >
</g>
<g >
</g>
<g >
</g>
<g >
</g>
<g >
</g>
<g >
</g>
<g >
</g>
<g >
</g>
<g >
</g>
<g >
</g>
<g >
</g>
<g >
</g>
<g >
</g>
<g >
</g>
<g >
</g>
<g >
</g>
<g >
</g>
<g >
</g>
<g >
</g>
<g >
</g>
<g >
</g>
<g >
</g>
<g >
</g>
<g >
</g>
<g >
</g>
<g >
</g>
<g >
</g>
<g >
</g>
<g >
</g>
<g >
</g>
<g >
</g>
<g >
</g>
<g >
</g>
<g >
</g>
<g >
</g>
<g >
</g>
<g >
</g>
<g >
</g>
<g >
</g>
<g >
</g>
<g >
</g>
<g >
</g>
<g >
</g>
<g >
</g>
<g >
</g>
<g >
</g>
<g >
</g>
<g >
</g>
<g >
</g>
<g >
</g>
<g >
</g>
<g >
</g>
<g >
</g>
<g >
</g>
<g >
</g>
<g >
</g>
<g >
</g>
<g >
</g>
<g >
</g>
<g >
</g>
<g >
</g>
<g >
</g>
<g >
</g>
<g >
</g>
<g >
</g>
<g >
</g>
<g >
</g>
<g >
</g>
<g >
</g>
<g >
</g>
<g >
</g>
<g >
</g>
<g >
</g>
<g >
</g>
<g >
</g>
<g >
</g>
<g >
</g>
<g >
</g>
<g >
</g>
<g >
</g>
<g >
</g>
<g >
</g>
<g >
</g>
<g >
</g>
<g >
</g>
<g >
</g>
<g >
</g>
<g >
</g>
<g >
</g>
<g >
</g>
<g >
</g>
<g >
</g>
<g >
</g>
<g >
</g>
<g >
</g>
<g >
</g>
<g >
</g>
<g >
</g>
<g >
</g>
<g >
</g>
<g >
</g>
<g >
</g>
<g >
</g>
<g >
</g>
<g >
</g>
<g >
</g>
<g >
</g>
<g >
</g>
<g >
</g>
<g >
</g>
<g >
</g>
<g >
</g>
</g>
<g style="fill:#000000; fill-opacity:0.0; 
stroke:#000000; stroke-width:120000.000000; stroke-opacity:1; 
stroke-linecap:round; stroke-linejoin:round;">
</g>
<g style="fill:#000000; fill-opacity:0.0; 
stroke:#000000; stroke-width:349999.000000; stroke-opacity:1; 
stroke-linecap:round; stroke-linejoin:round;">
<path d="M15108743 174999
L128540486 20176074
" />
<path d="M174999 84868443
L15108743 174999
" />
<path d="M128540486 20176074
L138540486 20176074
" />
<path d="M148540486 20176074
L261972203 174999
" />
<path d="M138540486 109266011
L174999 84868443
" />
<path d="M138540486 20176074
L148540486 20176074
" />
<path d="M261972203 174999
L276905949 84868443
" />
<path d="M276905949 84868443
L138540486 109266011
" />
<g >
</g>
<g >
</g>
<g >
</g>
<g >
</g>
<g >
</g>
<g >
</g>
<g >
</g>
<g >
</g>
<g >
</g>
<g >
</g>
<g >
</g>
<g >
</g>
<g >
</g>
<g >
</g>
<g >
</g>
<g >
</g>
<g >
</g>
<g >
</g>
<g >
</g>
<g >
</g>
<g >
</g>
<g >
</g>
<g >
</g>
<g >
</g>
<g >
</g>
<g >
</g>
<g >
</g>
<g >
</g>
<g >
</g>
<g >
</g>
<g >
</g>
<g >
</g>
<g >
</g>
<g >
</g>
<g >
</g>
<g >
</g>
<g >
</g>
<g >
</g>
<g >
</g>
<g >
</g>
<g >
</g>
<g >
</g>
<g >
</g>
<g >
</g>
<g >
</g>
<g >
</g>
<g >
</g>
<g >
</g>
<g >
</g>
<g >
</g>
<g >
</g>
<g >
</g>
<g >
</g>
<g >
</g>
<g >
</g>
<g >
</g>
<g >
</g>
<g >
</g>
<g >
</g>
<g >
</g>
<g >
</g>
<g >
</g>
<g >
</g>
<g >
</g>
<g >
</g>
<g >
</g>
<g >
</g>
<g >
</g>
<g >
</g>
<g >
</g>
<g >
</g>
<g >
</g>
<g >
</g>
<g >
</g>
<g >
</g>
<g >
</g>
<g >
</g>
<g >
</g>
<g >
</g>
<g >
</g>
<g >
</g>
<g >
</g>
<g >
</g>
<g >
</g>
<g >
</g>
<g >
</g>
<g >
</g>
<g >
</g>
<g >
</g>
<g >
</g>
<g >
</g>
<g >
</g>
<g >
</g>
<g >
</g>
<g >
</g>
<g >
</g>
<g >
</g>
<g >
</g>
<g >
</g>
<g >
</g>
<g >
</g>
<g >
</g>
<g >
</g>
<g >
</g>
<g >
</g>
<g >
</g>
<g >
</g>
<g >
</g>
<g >
</g>
<g >
</g>
<g >
</g>
<g >
</g>
<g >
</g>
</g>
<g style="fill:#000000; fill-opacity:0.0; 
stroke:#000000; stroke-width:349999.000000; stroke-opacity:1; 
stroke-linecap:round; stroke-linejoin:round;">
</g>
<g style="fill:#000000; fill-opacity:0.0; 
stroke:#000000; stroke-width:120000.000000; stroke-opacity:1; 
stroke-linecap:round; stroke-linejoin:round;">
<path d="M72913531 30012581
L86700840 32443656
" />
<path d="M86700840 32443656
L84269765 46230965
" />
<path d="M84269765 46230965
L70482456 43799890
" />
<path d="M70482456 43799890
L72913531 30012581
" />
<path d="M190301125 32496430
L204088434 30065355
" />
<path d="M204088434 30065355
L206519509 43852664
" />
<path d="M206519509 43852664
L192732200 46283739
" />
<path d="M192732200 46283739
L190301125 32496430
" />
<path d="M157741946 67253307
L171529255 64822232
" />
<path d="M171529255 64822232
L173960330 78609541
" />
<path d="M173960330 78609541
L160173021 81040616
" />
<path d="M160173021 81040616
L157741946 67253307
" />
<path d="M209888712 33878579
L223676021 31447504
" />
<path d="M223676021 31447504
L226107096 45234813
" />
<path d="M226107096 45234813
L212319787 47665888
" />
<path d="M212319787 47665888
L209888712 33878579
" />
<path d="M172367537 40494575
L186154846 38063500
" />
<path d="M186154846 38063500
L188585921 51850809
" />
<path d="M188585921 51850809
L174798612 54281884
" />
<path d="M174798612 54281884
L172367537 40494575
" />
<path d="M69605533 48773169
L83392842 51204244
" />
<path d="M83392842 51204244
L80961767 64991553
" />
<path d="M80961767 64991553
L67174458 62560478
" />
<path d="M67174458 62560478
L69605533 48773169
" />
<path d="M105472709 64769458
L119260018 67200533
" />
<path d="M119260018 67200533
L116828943 80987842
" />
<path d="M116828943 80987842
L103041634 78556767
" />
<path d="M103041634 78556767
L105472709 64769458
" />
<path d="M87539121 56771313
L101326430 59202388
" />
<path d="M101326430 59202388
L98895355 72989697
" />
<path d="M98895355 72989697
L85108046 70558622
" />
<path d="M85108046 70558622
L87539121 56771313
" />
<path d="M112088705 27248283
L125876014 29679358
" />
<path d="M125876014 29679358
L123444939 43466667
" />
<path d="M123444939 43466667
L109657630 41035592
" />
<path d="M109657630 41035592
L112088705 27248283
" />
<path d="M50017946 50155318
L63805255 52586393
" />
<path d="M63805255 52586393
L61374180 66373702
" />
<path d="M61374180 66373702
L47586871 63942627
" />
<path d="M47586871 63942627
L50017946 50155318
" />
<path d="M213196710 52639167
L226984019 50208092
" />
<path d="M226984019 50208092
L229415094 63995401
" />
<path d="M229415094 63995401
L215627785 66426476
" />
<path d="M215627785 66426476
L213196710 52639167
" />
<path d="M151125951 29732132
L164913260 27301057
" />
<path d="M164913260 27301057
L167344335 41088366
" />
<path d="M167344335 41088366
L153557026 43519441
" />
<path d="M153557026 43519441
L151125951 29732132
" />
<path d="M64631626 76831057
L78418935 79262132
" />
<path d="M78418935 79262132
L75987860 93049441
" />
<path d="M75987860 93049441
L62200551 90618366
" />
<path d="M62200551 90618366
L64631626 76831057
" />
<path d="M226168301 16500140
L239955610 14069065
" />
<path d="M239955610 14069065
L242386685 27856374
" />
<path d="M242386685 27856374
L228599376 30287449
" />
<path d="M228599376 30287449
L226168301 16500140
" />
<path d="M198598551 79262132
L212385860 76831057
" />
<path d="M212385860 76831057
L214816935 90618366
" />
<path d="M214816935 90618366
L201029626 93049441
" />
<path d="M201029626 93049441
L198598551 79262132
" />
<path d="M145108743 77524999
L131908743 77524999
" />
<path d="M131908743 77524999
L131908743 63524999
" />
<path d="M131908743 63524999
L145108743 63524999
" />
<path d="M145108743 63524999
L145108743 77524999
" />
<path d="M154433948 48492719
L168221257 46061644
" />
<path d="M168221257 46061644
L170652332 59848953
" />
<path d="M170652332 59848953
L156865023 62280028
" />
<path d="M156865023 62280028
L154433948 48492719
" />
<path d="M169059539 21733987
L182846848 19302912
" />
<path d="M182846848 19302912
L185277923 33090221
" />
<path d="M185277923 33090221
L171490614 35521296
" />
<path d="M171490614 35521296
L169059539 21733987
" />
<path d="M33738356 32776879
L47525665 35207954
" />
<path d="M47525665 35207954
L45094590 48995263
" />
<path d="M45094590 48995263
L31307281 46564188
" />
<path d="M31307281 46564188
L33738356 32776879
" />
<path d="M186993127 13735842
L200780436 11304767
" />
<path d="M200780436 11304767
L203211511 25092076
" />
<path d="M203211511 25092076
L189424202 27523151
" />
<path d="M189424202 27523151
L186993127 13735842
" />
<path d="M206580714 15117991
L220368023 12686916
" />
<path d="M220368023 12686916
L222799098 26474225
" />
<path d="M222799098 26474225
L209011789 28905300
" />
<path d="M209011789 28905300
L206580714 15117991
" />
<path d="M37046354 14016291
L50833663 16447366
" />
<path d="M50833663 16447366
L48402588 30234675
" />
<path d="M48402588 30234675
L34615279 27803600
" />
<path d="M34615279 27803600
L37046354 14016291
" />
<path d="M56633941 12634142
L70421250 15065217
" />
<path d="M70421250 15065217
L67990175 28852526
" />
<path d="M67990175 28852526
L54202866 26421451
" />
<path d="M54202866 26421451
L56633941 12634142
" />
<path d="M232784297 54021316
L246571606 51590241
" />
<path d="M246571606 51590241
L249002681 65377550
" />
<path d="M249002681 65377550
L235215372 67808625
" />
<path d="M235215372 67808625
L232784297 54021316
" />
<path d="M90847119 38010726
L104634428 40441801
" />
<path d="M104634428 40441801
L102203353 54229110
" />
<path d="M102203353 54229110
L88416044 51798035
" />
<path d="M88416044 51798035
L90847119 38010726
" />
<path d="M175675534 59255162
L189462843 56824087
" />
<path d="M189462843 56824087
L191893918 70611396
" />
<path d="M191893918 70611396
L178106609 73042471
" />
<path d="M178106609 73042471
L175675534 59255162
" />
<path d="M193609123 51257018
L207396432 48825943
" />
<path d="M207396432 48825943
L209827507 62613252
" />
<path d="M209827507 62613252
L196040198 65044327
" />
<path d="M196040198 65044327
L193609123 51257018
" />
<path d="M94155117 19250138
L107942426 21681213
" />
<path d="M107942426 21681213
L105511351 35468522
" />
<path d="M105511351 35468522
L91724042 33037447
" />
<path d="M91724042 33037447
L94155117 19250138
" />
<path d="M53325943 31394730
L67113252 33825805
" />
<path d="M67113252 33825805
L64682177 47613114
" />
<path d="M64682177 47613114
L50894868 45182039
" />
<path d="M50894868 45182039
L53325943 31394730
" />
<path d="M229476299 35260728
L243263608 32829653
" />
<path d="M243263608 32829653
L245694683 46616962
" />
<path d="M245694683 46616962
L231907374 49048037
" />
<path d="M231907374 49048037
L229476299 35260728
" />
<path d="M30430358 51537467
L44217667 53968542
" />
<path d="M44217667 53968542
L41786592 67755851
" />
<path d="M41786592 67755851
L27999283 65324776
" />
<path d="M27999283 65324776
L30430358 51537467
" />
<path d="M76221528 11251993
L90008837 13683068
" />
<path d="M90008837 13683068
L87577762 27470377
" />
<path d="M87577762 27470377
L73790453 25039302
" />
<path d="M73790453 25039302
L76221528 11251993
" />
<path d="M108780707 46008870
L122568016 48439945
" />
<path d="M122568016 48439945
L120136941 62227254
" />
<path d="M120136941 62227254
L106349632 59796179
" />
<path d="M106349632 59796179
L108780707 46008870
" />
<g >
</g>
<g >
</g>
<g >
</g>
<g >
</g>
<g >
</g>
<g >
</g>
<g >
</g>
<g >
</g>
<g >
</g>
<g >
</g>
<g >
</g>
<g >
</g>
<g >
</g>
<g >
</g>
<g >
</g>
<g >
</g>
<g >
</g>
<g >
</g>
<g >
</g>
<g >
</g>
<g >
</g>
<g >
</g>
<g >
</g>
<g >
</g>
<g >
</g>
<g >
</g>
<g >
</g>
<g >
</g>
<g >
</g>
<g >
</g>
<g >
</g>
<g >
</g>
<g >
</g>
<g >
</g>
<g >
</g>
<g >
</g>
<g >
</g>
<g >
</g>
<g >
</g>
<g >
</g>
<g >
</g>
<g >
</g>
<g >
</g>
<g >
</g>
<g >
</g>
<g >
</g>
<g >
</g>
<g >
</g>
<g >
</g>
<g >
</g>
<g >
</g>
<g >
</g>
<g >
</g>
<g >
</g>
<g >
</g>
<g >
</g>
<g >
</g>
<g >
</g>
<g >
</g>
<g >
</g>
<g >
</g>
<g >
</g>
<g >
</g>
<g >
</g>
<g >
</g>
<g >
</g>
<g >
</g>
<g >
</g>
<g >
</g>
<g >
</g>
<g >
</g>
<g >
</g>
<g >
</g>
<g >
</g>
<g >
</g>
<g >
</g>
<g >
</g>
<g >
</g>
<g >
</g>
<g >
</g>
<g >
</g>
<g >
</g>
<g >
</g>
<g >
</g>
<g >
</g>
<g >
</g>
<g >
</g>
<g >
</g>
<g >
</g>
<g >
</g>
<g >
</g>
<g >
</g>
<g >
</g>
<g >
</g>
<g >
</g>
<g >
</g>
<g >
</g>
<g >
</g>
<g >
</g>
<g >
</g>
<g >
</g>
<g >
</g>
<g >
</g>
<g >
</g>
<g >
</g>
<g >
</g>
<g >
</g>
<g >
</g>
<g >
</g>
<g >
</g>
<g >
</g>
<g >
</g>
<g >
</g>
</g> 
</svg>
